﻿# Tags:
# rank_headgear: any headgear that signifies a certain title. crowns, pope hat etc.



headgear = {
	# interface_position = 1
	usage = game
	selection_behavior = weighted_random
	
	no_hat = {
		usage = game 
		dna_modifiers = {
			accessory = {
				mode = add
		
				gene = headgear
				template = no_headgear
				value = 0
			}
		}
		weight = {
			base = 0
			modifier = {
				add = 1000
				AND = {
					should_be_naked_trigger = yes
				}
			}
			modifier = {
				factor = 0
				OR = {
					is_adult = no
					highest_held_title_tier >= tier_duchy # Should wear ducal or royal crown instead.
				}
			}
		}
	}

## So that the Prophet Muhammad does not have a portrait ## 

	no_portrait = {
		dna_modifiers = {
			accessory = {
				mode = add				
				gene = headgear
				template = no_headgear
				value = 0.5
			}
		}
		weight = {
			base = 0
			modifier = {
				add = 200
				exists = character:33922
				this = character:33922
			}
		}
	}




	no_headgear = {

		dna_modifiers = {
			accessory = {
				mode = add
				gene = headgear
				template = no_headgear
				range = { 0 1 } # For the randomness to work correctly
			}
		}	
		## No headgear for children under 16 ## 
		weight = {
			base = 0
			modifier = {
				add = 100
				age < 16
			}
		}
		## No headgear for vanity characters with the no_headgear flag, unless they are dukes or higher
		weight = {  
			base = 0
            modifier = {
                add = 100
                has_character_flag = no_headgear
                highest_held_title_tier < tier_duchy
            }
		}
	}



	vanity_no_headgear = {

		dna_modifiers = {
			accessory = {
				mode = add
				gene = headgear
				template = no_headgear
				range = { 0 1 } # For the randomness to work correctly
			}
		}	

	}

## DDE HRE ##

## Western ##

	dde_hre_commoners = {

		dna_modifiers = {
			accessory = {
				mode = add
				gene = headgear
				template = dde_hre_common
				range = { 0 1 } # For the randomness to work correctly
			}
		}	
		weight = {
			base = 0
			modifier = {
				add = 20
				highest_held_title_tier < tier_county
				NOR = {
					AND = {
						exists = primary_spouse
						primary_spouse = {
							highest_held_title_tier > tier_county
						}
					}
					AND = {
						has_government = republic_government
						primary_title.tier > 1
					}
					AND = { is_ruler = yes has_government = theocracy_government }
				}
				OR = {
					portrait_dde_hre_clothing_trigger = yes
					portrait_elven_clothing_trigger = yes
				}
			}
		}
	}

	dde_hre_low_nobles = {
		dna_modifiers = {
			accessory = {
				mode = add
				gene = headgear
				template = dde_hre_nobility
				range = { 0 1 } # For the randomness to work correctly
			}
		}	
		weight = {
			base = 0
			modifier = {
				add = 50
				OR = {
					AND = {
						highest_held_title_tier = tier_county
						NOR = {
							# has_dynasty = no
							AND = {
								has_government = republic_government
								primary_title.tier > 1
							}
							AND = { is_ruler = yes has_government = theocracy_government }
						}
						OR = {
							portrait_dde_hre_clothing_trigger = yes
							portrait_elven_clothing_trigger = yes
						}
					}
					AND = {
						exists = primary_spouse
						OR = {
							is_ruler = no
							highest_held_title_tier = tier_barony
						}
						primary_spouse = {
							highest_held_title_tier = tier_county
							NOR = {
								# has_dynasty = no
								AND = {
									has_government = republic_government
									primary_title.tier > 1
								}
								AND = { is_ruler = yes has_government = theocracy_government }
							}
							OR = {
								portrait_dde_hre_clothing_trigger = yes
								portrait_elven_clothing_trigger = yes
							}
						}
					}
				}
			}
		}
	}

	dde_hre_high_nobles = {
		dna_modifiers = {
			accessory = {
				mode = add
				gene = headgear
				template = dde_hre_high_nobility
				range = { 0 1 } # For the randomness to work correctly
			}
		}	
		weight = {
			base = 0
			modifier = {
				add = 50
				OR = {
					AND = {
						OR = {
							highest_held_title_tier = tier_duchy
							AND = {
								has_government = republic_government
								primary_title.tier > 2
							}
							AND = { is_ruler = yes has_government = theocracy_government }
						}
						NOT = { AND = { is_ruler = yes has_government = mercenary_government  } } # Blocked for mercenaries
						portrait_dde_hre_clothing_trigger = yes
					}
					AND = {
						exists = primary_spouse
						OR = {
							is_ruler = no
							highest_held_title_tier = tier_barony
						}
						primary_spouse = {
							OR = {
								highest_held_title_tier = tier_duchy
								AND = {
									has_government = republic_government
									primary_title.tier > 2
								}
								AND = { is_ruler = yes has_government = theocracy_government }
							}
							portrait_dde_hre_clothing_trigger = yes
						}
					}
				}
			}
		}
	}

	dde_hre_royalty = {
		dna_modifiers = {
			accessory = {
				mode = add
				gene = headgear
				template = dde_hre_royalty
				range = { 0 1 } # For the randomness to work correctly
			}
		}	
		weight = {
			base = 0
			modifier = {
				add = 50
				OR = {
					AND = {
						OR = {
							highest_held_title_tier = tier_kingdom
							AND = { is_ruler = yes has_government = theocracy_government }
						}
						NOT = { AND = { is_ruler = yes has_government = mercenary_government  } } # Blocked for mercenaries
						NOT = { has_government = republic_government }
						portrait_dde_hre_clothing_trigger = yes
					}
					AND = {
						exists = primary_spouse
						OR = {
							is_ruler = no
							highest_held_title_tier = tier_barony
						}
						primary_spouse = {
							OR = {
								highest_held_title_tier = tier_kingdom
								AND = { is_ruler = yes has_government = theocracy_government }
							}
							NOT = { AND = { is_ruler = yes has_government = mercenary_government  } } # Blocked for mercenaries
							NOT = { has_government = republic_government }
							portrait_elven_clothing_trigger = yes
						}
					}
				}
			}
		}
	}

	hre_imperial = {
		dna_modifiers = {
			accessory = {
				mode = add
				gene = headgear
				template = dde_hre_imperial
				range = { 0 1 } # For the randomness to work correctly
			}
		}	
		weight = {
			base = 0
			modifier = {
				add = 101 # always pick the HRE crown over the western one
				has_title = title:e_hre
			}
		}
	}


	dde_hre_war = {
		dna_modifiers = {
			accessory = {
				mode = add
				gene = headgear
				template = dde_hre_war
				range = { 0 1 } # For the randomness to work correctly
			}
		}	
		weight = {
			base = 0
			modifier = {
				add = 101 # larger than the western war headgear
				portrait_wear_helmet_trigger = yes
				portrait_dde_hre_clothing_trigger = yes
			}
		}
	}

## Western ##

	western_commoners = {

		dna_modifiers = {
			accessory = {
				mode = add
				gene = headgear
				template = western_common
				range = { 0 1 } # For the randomness to work correctly
			}
		}	
		weight = {
			base = 0
			modifier = {
				add = 20
				highest_held_title_tier < tier_county
				NOR = {
					AND = {
						exists = primary_spouse
						primary_spouse = {
							highest_held_title_tier > tier_county
						}
					}
					AND = {
						has_government = republic_government
						primary_title.tier > 1
					}
					AND = { is_ruler = yes has_government = theocracy_government }
				}
				OR = {
					portrait_western_clothing_trigger = yes
					portrait_elven_clothing_trigger = yes
				}
			}
		}
	}

	western_low_nobles = {
		dna_modifiers = {
			accessory = {
				mode = add
				gene = headgear
				template = western_nobility
				range = { 0 1 } # For the randomness to work correctly
			}
		}	
		weight = {
			base = 0
			modifier = {
				add = 50
				OR = {
					AND = {
						highest_held_title_tier = tier_county
						OR = {
							# has_dynasty = no
							AND = {
								has_government = republic_government
								primary_title.tier > 1
							}
							AND = { is_ruler = yes has_government = theocracy_government }
						}
						OR = {
							portrait_western_clothing_trigger = yes
							portrait_elven_clothing_trigger = yes
						}
					}
					AND = {
						exists = primary_spouse
						OR = {
							is_ruler = no
							highest_held_title_tier = tier_barony
						}
						primary_spouse = {
							highest_held_title_tier = tier_county
							NOR = {
								# has_dynasty = no
								AND = {
									has_government = republic_government
									primary_title.tier > 1
								}
								AND = { is_ruler = yes has_government = theocracy_government }
							}
							OR = {
								portrait_western_clothing_trigger = yes
								portrait_elven_clothing_trigger = yes
							}
						}
					}
				}
			}
		}
	}

	western_high_nobles = {
		dna_modifiers = {
			accessory = {
				mode = add
				gene = headgear
				template = western_high_nobility
				range = { 0 1 } # For the randomness to work correctly
			}
		}	
		weight = {
			base = 0
			modifier = {
				add = 50
				OR = {
					AND = {
						OR = {
							highest_held_title_tier = tier_duchy
							AND = {
								has_government = republic_government
								primary_title.tier > 2
							}
							AND = { is_ruler = yes has_government = theocracy_government }
						}
						NOT = { AND = { is_ruler = yes has_government = mercenary_government  } } # Blocked for mercenaries
						OR = {
							portrait_western_clothing_trigger = yes
							portrait_northern_clothing_trigger = yes
						}
					}
					AND = {
						exists = primary_spouse
						OR = {
							is_ruler = no
							highest_held_title_tier = tier_barony
						}
						primary_spouse = {
							OR = {
								highest_held_title_tier = tier_duchy
								AND = {
									has_government = republic_government
									primary_title.tier > 2
								}
								AND = { is_ruler = yes has_government = theocracy_government }
							}
							OR = {
								portrait_western_clothing_trigger = yes
								portrait_northern_clothing_trigger = yes
							}
						}
					}
				}
			}
		}
	}

	western_royalty = {
		dna_modifiers = {
			accessory = {
				mode = add
				gene = headgear
				template = western_royalty
				range = { 0 1 } # For the randomness to work correctly
			}
		}	
		weight = {
			base = 0
			modifier = {
				add = 50
				OR = {
					AND = {
						OR = {
							highest_held_title_tier = tier_kingdom
							AND = { is_ruler = yes has_government = theocracy_government }
							AND = {
								highest_held_title_tier = tier_empire
								portrait_northern_clothing_trigger = yes
							}
						}
						NOT = { AND = { is_ruler = yes has_government = mercenary_government  } } # Blocked for mercenaries
						NOT = { has_government = republic_government }
						OR = {
							portrait_western_clothing_trigger = yes
							portrait_northern_clothing_trigger = yes
						}
					}
					AND = {
						exists = primary_spouse
						OR = {
							is_ruler = no
							highest_held_title_tier = tier_barony
						}
						primary_spouse = {
							OR = {
								highest_held_title_tier = tier_kingdom
								AND = { is_ruler = yes has_government = theocracy_government }
								AND = {
									highest_held_title_tier = tier_empire
									portrait_northern_clothing_trigger = yes
								}
							}
							NOT = { AND = { is_ruler = yes has_government = mercenary_government  } } # Blocked for mercenaries
							NOT = { has_government = republic_government }
							OR = {
								portrait_western_clothing_trigger = yes
								portrait_northern_clothing_trigger = yes
							}
						}
					}
				}
			}
		}
	}

	western_imperial = {
		dna_modifiers = {
			accessory = {
				mode = add
				gene = headgear
				template = western_imperial
				range = { 0 1 } # For the randomness to work correctly
			}
		}	
		weight = {
			base = 0
			modifier = {
				add = 50
				OR = {
					AND = {
						OR = {
							highest_held_title_tier = tier_empire
							AND = { is_ruler = yes has_government = theocracy_government }
						}
						NOT = { AND = { is_ruler = yes has_government = mercenary_government  } } # Blocked for mercenaries
						NOT = { has_government = republic_government }
						portrait_western_clothing_trigger = yes
					}
					AND = {
						exists = primary_spouse
						OR = {
							is_ruler = no
							highest_held_title_tier = tier_barony
						}
						primary_spouse = {
							OR = {
								highest_held_title_tier = tier_empire
								AND = { is_ruler = yes has_government = theocracy_government }
							}
							NOT = { AND = { is_ruler = yes has_government = mercenary_government  } } # Blocked for mercenaries
							NOT = { has_government = republic_government }
							portrait_western_clothing_trigger = yes
						}
					}
				}

			}
		}
	}


	western_war = {
		dna_modifiers = {
			accessory = {
				mode = add
				gene = headgear
				template = western_war
				range = { 0 1 } # For the randomness to work correctly
			}
		}	
		weight = {
			base = 0
			modifier = {
				add = 100
				portrait_wear_helmet_trigger = yes
				OR = {
					portrait_western_clothing_trigger = yes
					portrait_elven_clothing_trigger = yes
				}
			}
		}
	}


	crusades_western_war = {
		dna_modifiers = {
			accessory = {
				mode = add
				gene = headgear
				template = crusades_western_war
				range = { 0 1 } # For the randomness to work correctly
			}
		}	
		weight = {
			base = 0
		}
	}



## Byzantine ##


	byzantine_commoners = {
		dna_modifiers = {
			accessory = {
				mode = add
				gene = headgear
				template = byzantine_common
				range = { 0 1 } # For the randomness to work correctly
			}
		}	
		weight = {
			base = 0
			modifier = {
				add = 20
				highest_held_title_tier < tier_county
				NOR = {
					AND = {
						exists = primary_spouse
						primary_spouse = {
							highest_held_title_tier > tier_county
						}
					}
					AND = {
						has_government = republic_government
						primary_title.tier > 1
					}
					AND = { is_ruler = yes has_government = theocracy_government }
				}
				portrait_byzantine_clothing_trigger = yes
			}
		}
	}

	byzantine_low_nobles = {
		dna_modifiers = {
			accessory = {
				mode = add
				gene = headgear
				template = byzantine_nobility
				range = { 0 1 } # For the randomness to work correctly
			}
		}	
		weight = {
			base = 0
			modifier = {
				add = 50
				OR = {
					AND = {
						highest_held_title_tier = tier_county
						NOR = {
							# has_dynasty = no
							AND = {
								has_government = republic_government
								primary_title.tier > 1
							}
							AND = { is_ruler = yes has_government = theocracy_government }
						}
						portrait_byzantine_clothing_trigger = yes
					}
					AND = {
						exists = primary_spouse
						OR = {
							is_ruler = no
							highest_held_title_tier = tier_barony
						}
						primary_spouse = {
							highest_held_title_tier = tier_county
							NOR = {
								# has_dynasty = no
								AND = {
									has_government = republic_government
									primary_title.tier > 1
								}
								AND = { is_ruler = yes has_government = theocracy_government }
							}
							portrait_byzantine_clothing_trigger = yes
						}
					}
				}

			}
		}
	}

	byzantine_high_nobles = {
		dna_modifiers = {
			accessory = {
				mode = add
				gene = headgear
				template = byzantine_high_nobility
				range = { 0 1 } # For the randomness to work correctly
			}
		}		
		weight = {
			base = 0
			modifier = {
				add = 50
				OR = {
					AND = {
						OR = {
							highest_held_title_tier = tier_duchy
							AND = {
								has_government = republic_government
								primary_title.tier > 2
							}
							AND = { is_ruler = yes has_government = theocracy_government }
						}
						NOT = { AND = { is_ruler = yes has_government = mercenary_government  } } # Blocked for mercenaries
						portrait_byzantine_clothing_trigger = yes
					}
					AND = {
						exists = primary_spouse
						OR = {
							is_ruler = no
							highest_held_title_tier = tier_barony
						}
						primary_spouse = {
							OR = {
								highest_held_title_tier = tier_duchy
								AND = {
									has_government = republic_government
									primary_title.tier > 2
								}
								AND = { is_ruler = yes has_government = theocracy_government }
							}
							portrait_byzantine_clothing_trigger = yes
						}
					}
				}

			}
		}
	}

	byzantine_royalty = {
		dna_modifiers = {
			accessory = {
				mode = add
				gene = headgear
				template = byzantine_royalty
				range = { 0 1 } # For the randomness to work correctly
			}
		}		
		weight = {
			base = 0
			modifier = {
				add = 50
				OR = {
					AND = {
						OR = {
							highest_held_title_tier = tier_kingdom
							AND = { is_ruler = yes has_government = theocracy_government }
						}
						NOT = { AND = { is_ruler = yes has_government = mercenary_government  } } # Blocked for mercenaries
						NOT = { has_government = republic_government }
						portrait_byzantine_clothing_trigger = yes
					}
					AND = {
						exists = primary_spouse
						is_ruler = no
						primary_spouse = {
							OR = {
								highest_held_title_tier >= tier_kingdom
								AND = { is_ruler = yes has_government = theocracy_government }
							}
							portrait_byzantine_clothing_trigger = yes
						}
					}
				}

			}
		}
	}

	byzantine_imperial = {
		dna_modifiers = {
			accessory = {
				mode = add
				gene = headgear
				template = byzantine_imperial
				range = { 0 1 } # For the randomness to work correctly
			}
		}		
		weight = {
			base = 0
			modifier = {
				add = 50
				OR = {
					AND = {
						OR = {
							highest_held_title_tier = tier_empire
							AND = { is_ruler = yes has_government = theocracy_government }
						}
						NOT = { AND = { is_ruler = yes has_government = mercenary_government  } } # Blocked for mercenaries
						NOT = { has_government = republic_government }
						portrait_byzantine_clothing_trigger = yes
					}
					#AND = {
					#	exists = primary_spouse
					#	is_ruler = no
					#	primary_spouse = {
					#		OR = {
					#			highest_held_title_tier = tier_empire
					#			AND = { is_ruler = yes has_government = theocracy_government }
					#		}
					#		NOT = { AND = { is_ruler = yes has_government = mercenary_government  } } # Blocked for mercenaries
					#		NOT = { has_government = republic_government }
					#		portrait_byzantine_clothing_trigger = yes
					#	}
					#}
				}

			}
		}
	}

	byzantine_war = {
		dna_modifiers = {
			accessory = {
				mode = add
				gene = headgear
				template = byzantine_war
				range = { 0 1 } # For the randomness to work correctly
			}
		}	
		weight = {
			base = 0
			modifier = {
				add = 100
				portrait_wear_helmet_trigger = yes
				portrait_byzantine_clothing_trigger = yes
			}
		}
	}

## INDIAN ##

	indian_commoners = {
		dna_modifiers = {
			accessory = {
				mode = add
				gene = headgear
				template = indian_common
				range = { 0 1 } # For the randomness to work correctly
			}
		}	
		weight = {
			base = 0
			modifier = {
				add = 20
				highest_held_title_tier < tier_county
				NOR = {
					AND = {
						exists = primary_spouse
						primary_spouse = {
							highest_held_title_tier > tier_county
						}
					}
					AND = {
						has_government = republic_government
						primary_title.tier > 1
					}
					AND = { is_ruler = yes has_government = theocracy_government }
				}
				portrait_indian_clothing_trigger = yes

				NOT = {
					portrait_elven_clothing_trigger = yes
				}
			}
		}
	}

	indian_low_nobles = {
		dna_modifiers = {
			accessory = {
				mode = add
				gene = headgear
				template = indian_nobility
				range = { 0 1 } # For the randomness to work correctly
			}
		}	
		weight = {
			base = 0
			modifier = {
				add = 50
				OR = {
					AND = {
						highest_held_title_tier = tier_county
						NOR = {
							# has_dynasty = no
							AND = {
								has_government = republic_government
								primary_title.tier > 1
							}
							AND = { is_ruler = yes has_government = theocracy_government }
						}
						portrait_indian_clothing_trigger = yes

						NOT = {
							portrait_elven_clothing_trigger = yes
						}
					}
					AND = {
						exists = primary_spouse
						OR = {
							is_ruler = no
							highest_held_title_tier = tier_barony
						}
						primary_spouse = {
							highest_held_title_tier = tier_county
							NOR = {
								# has_dynasty = no
								AND = {
									has_government = republic_government
									primary_title.tier > 1
								}
								AND = { is_ruler = yes has_government = theocracy_government }
							}
							portrait_indian_clothing_trigger = yes

							NOT = {
								portrait_elven_clothing_trigger = yes
							}
						}
					}
				}

			}
		}
	}

	indian_high_nobles = {
		dna_modifiers = {
			accessory = {
				mode = add
				gene = headgear
				template = indian_high_nobility
				range = { 0 1 } # For the randomness to work correctly
			}
		}		
		weight = {
			base = 0
			modifier = {
				add = 50
				OR = {
					AND = {
						OR = {
							highest_held_title_tier = tier_duchy
							AND = {
								has_government = republic_government
								primary_title.tier > 2
							}
							AND = { is_ruler = yes has_government = theocracy_government }
						}
						NOT = { AND = { is_ruler = yes has_government = mercenary_government  } } # Blocked for mercenaries
						portrait_indian_clothing_trigger = yes
					}
					AND = {
						exists = primary_spouse
						OR = {
							is_ruler = no
							highest_held_title_tier = tier_barony
						}
						primary_spouse = {
							OR = {
								highest_held_title_tier = tier_duchy
								AND = {
									has_government = republic_government
									primary_title.tier > 2
								}
								AND = { is_ruler = yes has_government = theocracy_government }
							}
							portrait_indian_clothing_trigger = yes

							NOT = {
								portrait_elven_clothing_trigger = yes
							}
						}
					}
				}				

			}
		}
	}

	indian_royalty = {
		dna_modifiers = {
			accessory = {
				mode = add
				gene = headgear
				template = indian_royalty
				range = { 0 1 } # For the randomness to work correctly
			}
		}		
		weight = {
			base = 0
			modifier = {
				add = 50
				OR = {
					AND = {
						OR = {
							highest_held_title_tier = tier_kingdom
							AND = { is_ruler = yes has_government = theocracy_government }
						}
						NOT = { AND = { is_ruler = yes has_government = mercenary_government  } } # Blocked for mercenaries
						NOT = { has_government = republic_government }
						portrait_indian_clothing_trigger = yes
					}
					AND = {
						exists = primary_spouse
						OR = {
							is_ruler = no
							highest_held_title_tier = tier_barony
						}
						primary_spouse = {
							OR = {
								highest_held_title_tier = tier_kingdom
								AND = { is_ruler = yes has_government = theocracy_government }
							}
							NOT = { AND = { is_ruler = yes has_government = mercenary_government  } } # Blocked for mercenaries
							NOT = { has_government = republic_government }
							portrait_indian_clothing_trigger = yes

							NOT = {
								portrait_elven_clothing_trigger = yes
							}
						}
					}
				}				

			}
		}
	}

	indian_imperial = {
		dna_modifiers = {
			accessory = {
				mode = add
				gene = headgear
				template = indian_imperial
				range = { 0 1 } # For the randomness to work correctly
			}
		}		
		weight = {
			base = 0
			modifier = {
				add = 50
				OR = {
					AND = {
						OR = {
							highest_held_title_tier = tier_empire
							AND = { is_ruler = yes has_government = theocracy_government }
						}
						NOT = { AND = { is_ruler = yes has_government = mercenary_government  } } # Blocked for mercenaries
						NOT = { has_government = republic_government }
						portrait_indian_clothing_trigger = yes
					}
					AND = {
						exists = primary_spouse
						OR = {
							is_ruler = no
							highest_held_title_tier = tier_barony
						}
						primary_spouse = {
							OR = {
								highest_held_title_tier = tier_empire
								AND = { is_ruler = yes has_government = theocracy_government }
							}
							NOT = { AND = { is_ruler = yes has_government = mercenary_government  } } # Blocked for mercenaries
							NOT = { has_government = republic_government }
							portrait_indian_clothing_trigger = yes

							NOT = {
								portrait_elven_clothing_trigger = yes
							}
						}
					}
				}				

			}
		}
	}

	indian_war = {
		dna_modifiers = {
			accessory = {
				mode = add
				gene = headgear
				template = indian_war
				range = { 0 1 } # For the randomness to work correctly
			}
		}	
		weight = {
			base = 0
			modifier = {
				add = 100
				portrait_wear_helmet_trigger = yes
				portrait_indian_clothing_trigger = yes

				NOT = {
					portrait_elven_clothing_trigger = yes
				}
			}
		}
	}


## MENA ##

	mena_commoners = {
		dna_modifiers = {
			accessory = {
				mode = add
				gene = headgear
				template = mena_common
				range = { 0 1 } # For the randomness to work correctly
			}
		}	
		weight = {
			base = 0
			modifier = {
				add = 20
				highest_held_title_tier < tier_county
				NOR = {
					AND = {
						exists = primary_spouse
						primary_spouse = {
							highest_held_title_tier > tier_county
						}
					}
					has_government = republic_government
					AND = { is_ruler = yes has_government = theocracy_government }
				}
				portrait_mena_clothing_trigger = yes
			}
		}
	}

	mena_mayors = {
		dna_modifiers = {
			accessory = {
				mode = add
				gene = headgear
				template = mena_low_nobility
				range = { 0 1 } # For the randomness to work correctly
			}
		}	
		weight = {
			base = 0
			modifier = {
				add = 60
				highest_held_title_tier < tier_county
				has_government = republic_government
				portrait_mena_clothing_trigger = yes
			}
		}
	}

	mena_low_nobles = {
		dna_modifiers = {
			accessory = {
				mode = add
				gene = headgear
				template = mena_low_nobility
				range = { 0 1 } # For the randomness to work correctly
			}
		}	
		weight = {
			base = 0
			modifier = {
				add = 50
				OR = {
					AND = {
						highest_held_title_tier = tier_county
						NOR = {
							# has_dynasty = no
							AND = {
								has_government = republic_government
								primary_title.tier > 1
							}
							AND = { is_ruler = yes has_government = theocracy_government }
						}
						portrait_mena_clothing_trigger = yes
					}
					AND = {
						exists = primary_spouse
						OR = {
							is_ruler = no
							highest_held_title_tier = tier_barony
						}
						primary_spouse = {
							highest_held_title_tier = tier_county
							NOR = {
								# has_dynasty = no
								AND = {
									has_government = republic_government
									primary_title.tier > 1
								}
								AND = { is_ruler = yes has_government = theocracy_government }
							}
							portrait_mena_clothing_trigger = yes
						}
					}
				}

			}
		}
	}

	mena_high_nobles = {
		dna_modifiers = {
			accessory = {
				mode = add
				gene = headgear
				template = mena_high_nobility
				range = { 0 1 } # For the randomness to work correctly
			}
		}		
		weight = {
			base = 0
			modifier = {
				add = 50
				OR = {
					AND = {
						OR = {
							highest_held_title_tier = tier_duchy
							AND = {
								has_government = republic_government
								primary_title.tier > 2
							}
							AND = { is_ruler = yes has_government = theocracy_government }
						}
						NOT = { AND = { is_ruler = yes has_government = mercenary_government  } } # Blocked for mercenaries
						portrait_mena_clothing_trigger = yes
					}
					AND = {
						exists = primary_spouse
						OR = {
							is_ruler = no
							highest_held_title_tier = tier_barony
						}
						primary_spouse = {
							OR = {
								highest_held_title_tier = tier_duchy
								AND = {
									has_government = republic_government
									primary_title.tier > 2
								}
								AND = { is_ruler = yes has_government = theocracy_government }
							}
							portrait_mena_clothing_trigger = yes
						}
					}
				}

			}
		}
	}

	mena_royalty = {
		dna_modifiers = {
			accessory = {
				mode = add
				gene = headgear
				template = mena_royalty
				range = { 0 1 } # For the randomness to work correctly
			}
		}		
		weight = {
			base = 0
			modifier = {
				add = 50
				OR = {
					AND = {
						OR = {
							highest_held_title_tier = tier_kingdom
							AND = { is_ruler = yes has_government = theocracy_government }
						}
						NOT = { AND = { is_ruler = yes has_government = mercenary_government  } } # Blocked for mercenaries
						NOT = { has_government = republic_government }
						portrait_mena_clothing_trigger = yes
					}
					AND = {
						exists = primary_spouse
						OR = {
							is_ruler = no
							highest_held_title_tier = tier_barony
						}
						primary_spouse = {
							OR = {
								highest_held_title_tier = tier_kingdom
								AND = { is_ruler = yes has_government = theocracy_government }
							}
							NOT = { AND = { is_ruler = yes has_government = mercenary_government  } } # Blocked for mercenaries
							NOT = { has_government = republic_government }
							portrait_mena_clothing_trigger = yes
						}
					}
				}

			}
		}
	}

	mena_imperial = {
		dna_modifiers = {
			accessory = {
				mode = add
				gene = headgear
				template = mena_imperial
				range = { 0 1 } # For the randomness to work correctly
			}
		}	
		weight = {
			base = 0
			modifier = {
				add = 50
				highest_held_title_tier = tier_empire
				NOR = {
					AND = { is_ruler = yes has_government = mercenary_government  }
					has_government = republic_government
					AND = { is_ruler = yes has_government = theocracy_government }
				}
				portrait_mena_clothing_trigger = yes
			}
		}
	}

	mena_war = {
		dna_modifiers = {
			accessory = {
				mode = add
				gene = headgear
				template = mena_war
				range = { 0 1 } # For the randomness to work correctly
			}
		}	
		weight = {
			base = 0
			modifier = {
				add = 100
				portrait_wear_helmet_trigger = yes
				portrait_mena_clothing_trigger = yes
			}
		}
	}
	
## DDE ABBASID ##

	dde_abbasid_commoners = {
		dna_modifiers = {
			accessory = {
				mode = add
				gene = headgear
				template = dde_abbasid_common
				range = { 0 1 } # For the randomness to work correctly
			}
		}	
		weight = {
			base = 0
			modifier = {
				add = 20
				 highest_held_title_tier < tier_county
				 NOR = {
					AND = {
						exists = primary_spouse
						primary_spouse = {
							highest_held_title_tier > tier_county
						}
					}
				 	has_government = republic_government
				 	AND = { is_ruler = yes has_government = theocracy_government }
				}
				portrait_dde_abbasid_clothing_trigger = yes
			}
		}
	}

	dde_abbasid_high_nobles = {
		dna_modifiers = {
			accessory = {
				mode = add
				gene = headgear
				template = dde_abbasid_high_nobility
				range = { 0 1 } # For the randomness to work correctly
			}
		}		
		weight = {
			base = 0
			modifier = {
				add = 50
				OR = {
					AND = {
						OR = {
							highest_held_title_tier = tier_duchy
							AND = {
								has_government = republic_government
								primary_title.tier > 2
							}
							AND = { is_ruler = yes has_government = theocracy_government }
						}
						NOT = { AND = { is_ruler = yes has_government = mercenary_government  } } # Blocked for mercenaries
						portrait_dde_abbasid_clothing_trigger = yes
					}
					AND = {
						exists = primary_spouse
						OR = {
							is_ruler = no
							highest_held_title_tier = tier_barony
						}
						primary_spouse = {
							OR = {
								highest_held_title_tier = tier_duchy
								AND = {
									has_government = republic_government
									primary_title.tier > 2
								}
								AND = { is_ruler = yes has_government = theocracy_government }
							}
							portrait_dde_abbasid_clothing_trigger = yes
						}
					}
				}
			}
		}
	}

	dde_abbasid_royalty = {
		dna_modifiers = {
			accessory = {
				mode = add
				gene = headgear
				template = dde_abbasid_royalty
				range = { 0 1 } # For the randomness to work correctly
			}
		}		
		weight = {
			base = 0
			modifier = {
				add = 50
				OR = {
					AND = {
						OR = {
							highest_held_title_tier = tier_kingdom
							AND = { is_ruler = yes has_government = theocracy_government }
						}
						NOT = { AND = { is_ruler = yes has_government = mercenary_government  } } # Blocked for mercenaries
						NOT = { has_government = republic_government }
						portrait_dde_abbasid_clothing_trigger = yes
					}
					AND = {
						exists = primary_spouse
						OR = {
							is_ruler = no
							highest_held_title_tier = tier_barony
						}
						primary_spouse = {
							OR = {
								highest_held_title_tier = tier_kingdom
								AND = { is_ruler = yes has_government = theocracy_government }
							}
							NOT = { AND = { is_ruler = yes has_government = mercenary_government  } } # Blocked for mercenaries
							NOT = { has_government = republic_government }
							portrait_dde_abbasid_clothing_trigger = yes
						}
					}
				}
			}
		}
	}

	dde_abbasid_imperial = {
		dna_modifiers = {
			accessory = {
				mode = add
				gene = headgear
				template = dde_abbasid_imperial
				range = { 0 1 } # For the randomness to work correctly
			}
		}	
		weight = {
			base = 0
			modifier = {
				add = 100 # pick over mena
				highest_held_title_tier = tier_empire
				NOR = {
					AND = { is_ruler = yes has_government = mercenary_government  }
					has_government = republic_government
					AND = { is_ruler = yes has_government = theocracy_government }
				}
				portrait_dde_abbasid_clothing_trigger = yes
			}
		}
	}

	dde_abbasid_war = {
		dna_modifiers = {
			accessory = {
				mode = add
				gene = headgear
				template = dde_abbasid_war
				range = { 0 1 } # For the randomness to work correctly
			}
		}	
		weight = {
			base = 0
			modifier = {
				add = 101 # slightly higher than mena
				OR = { # This helmet is really fancy & gilded - it's nothing for commoners. We allow Dukes+ to use it sometimes, just because it suits them!
					AND = {
						has_council_position = councillor_marshal
						OR = {
							is_landed = no
							primary_title.tier >= tier_duchy
						}
					}
					AND = {
						is_commanding_army = yes
						AND = {
							exists = primary_title
							primary_title.tier >= tier_duchy
						}
					}
				}
				portrait_mena_clothing_trigger = yes
			}
		}
	}


## Steppe ##

	steppe_commoners = {
		dna_modifiers = {
			accessory = {
				mode = add
				gene = headgear
				template = steppe_common
				range = { 0 1 } # For the randomness to work correctly
			}
		}	
		weight = {
			base = 0
			modifier = {
				add = 20
				highest_held_title_tier < tier_county
				NOR = {
					AND = {
						exists = primary_spouse
						primary_spouse = {
							highest_held_title_tier > tier_county
						}
					}
					AND = {
						has_government = republic_government
						primary_title.tier > 1
					}
					AND = { is_ruler = yes has_government = theocracy_government }
				}
				portrait_steppe_clothing_trigger = yes
			}
		}
	}

	steppe_low_nobles = {
		dna_modifiers = {
			accessory = {
				mode = add
				gene = headgear
				template = steppe_nobility
				range = { 0 1 } # For the randomness to work correctly
			}
		}		
		weight = {
			base = 0
			modifier = {
				add = 50
				OR = {
					AND = {
						OR = {
							highest_held_title_tier = tier_duchy
							AND = {
								has_government = republic_government
								primary_title.tier > 1
							}
							AND = { is_ruler = yes has_government = theocracy_government }
						}
						NOT = { AND = { is_ruler = yes has_government = mercenary_government  } } # Blocked for mercenaries
						portrait_steppe_clothing_trigger = yes
					}
					AND = {
						exists = primary_spouse
						OR = {
							is_ruler = no
							highest_held_title_tier = tier_barony
						}
						primary_spouse = {
							OR = {
								highest_held_title_tier = tier_duchy
								AND = {
									has_government = republic_government
									primary_title.tier > 1
								}
								AND = { is_ruler = yes has_government = theocracy_government }
							}
							portrait_steppe_clothing_trigger = yes
						}
					}
				}

			}
		}
	}

	steppe_high_nobles = {
		dna_modifiers = {
			accessory = {
				mode = add
				gene = headgear
				template = steppe_high_nobility
				range = { 0 1 } # For the randomness to work correctly
			}
		}		
		weight = {
			base = 0
			modifier = {
				add = 50
				OR = {
					AND = {
						OR = {
							highest_held_title_tier = tier_duchy
							AND = {
								has_government = republic_government
								primary_title.tier > 2
							}
							AND = { is_ruler = yes has_government = theocracy_government }
						}
						NOT = { AND = { is_ruler = yes has_government = mercenary_government  } } # Blocked for mercenaries
						portrait_steppe_clothing_trigger = yes
					}
					AND = {
						exists = primary_spouse
						OR = {
							is_ruler = no
							highest_held_title_tier = tier_barony
						}
						primary_spouse = {
							OR = {
								highest_held_title_tier = tier_duchy
								AND = {
									has_government = republic_government
									primary_title.tier > 2
								}
								AND = { is_ruler = yes has_government = theocracy_government }
							}
							portrait_steppe_clothing_trigger = yes
						}
					}
				}
			}
		}
	}

	steppe_royalty = {
		dna_modifiers = {
			accessory = {
				mode = add
				gene = headgear
				template = steppe_royalty
				range = { 0 1 } # For the randomness to work correctly
			}
		}		
		weight = {
			base = 0
			modifier = {
				add = 50
				OR = {
					AND = {
						OR = {
							highest_held_title_tier > tier_duchy
							AND = { is_ruler = yes has_government = theocracy_government }
						}
						NOT = { AND = { is_ruler = yes has_government = mercenary_government  } } # Blocked for mercenaries
						NOT = { has_government = republic_government }
						portrait_steppe_clothing_trigger = yes
					}
					AND = {
						exists = primary_spouse
						OR = {
							is_ruler = no
							highest_held_title_tier = tier_barony
						}
						primary_spouse = {
							OR = {
								highest_held_title_tier > tier_duchy
								AND = { is_ruler = yes has_government = theocracy_government }
							}
							NOT = { AND = { is_ruler = yes has_government = mercenary_government  } } # Blocked for mercenaries
							NOT = { has_government = republic_government }
							portrait_steppe_clothing_trigger = yes
						}
					}
				}
			}
		}
	}

	steppe_war = {
		dna_modifiers = {
			accessory = {
				mode = add
				gene = headgear
				template = steppe_war
				range = { 0 1 } # For the randomness to work correctly
			}
		}	
		weight = {
			base = 0
			modifier = {
				add = 100
				portrait_wear_helmet_trigger = yes
				portrait_steppe_clothing_trigger = yes
			}
		}
	}


## Northern Pagans ##

	northern_commoners = {
		dna_modifiers = {
			accessory = {
				mode = add
				gene = headgear
				template = northern_common
				range = { 0 1 } # For the randomness to work correctly
			}
		}	
		weight = {
			base = 0
			modifier = {
				add = 30
				highest_held_title_tier < tier_county
				NOR = {
					AND = {
						exists = primary_spouse
						primary_spouse = {
							highest_held_title_tier > tier_county
						}
					}
					AND = {
						has_government = republic_government
						primary_title.tier > 1
					}
					AND = { is_ruler = yes has_government = theocracy_government }
				}
				portrait_northern_clothing_trigger = yes
			}
		}
	}

	northern_low_nobles = {
		dna_modifiers = {
			accessory = {
				mode = add
				gene = headgear
				template = northern_common
				range = { 0 1 } # For the randomness to work correctly
			}
		}	
		weight = {
			base = 0
			modifier = {
				add = 50
				highest_held_title_tier = tier_county
				NOR = {
					# has_dynasty = no
					AND = {
						has_government = republic_government
						primary_title.tier > 1
					}
					AND = { is_ruler = yes has_government = theocracy_government }
				}
				portrait_northern_clothing_trigger = yes
			}
		}
	}

	northern_war = {
		dna_modifiers = {
			accessory = {
				mode = add
				gene = headgear
				template = northern_war
				range = { 0 1 } # For the randomness to work correctly
			}
		}	
		weight = {
			base = 0
			modifier = {
				add = 100
				portrait_wear_helmet_trigger = yes
				portrait_northern_clothing_trigger = yes
			}
		}
	}


## Sub-Saharan Africans ##

	african_commoners = {
		dna_modifiers = {
			accessory = {
				mode = add
				gene = headgear
				template = sub_saharan_common
				range = { 0 1 } # For the randomness to work correctly
			}
		}	
		weight = {
			base = 0
			modifier = {
				add = 50
				highest_held_title_tier < tier_county
				NOR = {
					AND = {
						exists = primary_spouse
						primary_spouse = {
							highest_held_title_tier > tier_county
						}
					}
					AND = {
						has_government = republic_government
						primary_title.tier > 1
					}
					AND = { is_ruler = yes has_government = theocracy_government }
				}
				portrait_african_clothing_trigger = yes
			}
		}
	}

	sub_saharan_high_nobles = {
		dna_modifiers = {
			accessory = {
				mode = add
				gene = headgear
				template = sub_saharan_high_nobility
				range = { 0 1 } # For the randomness to work correctly
			}
		}		
		weight = {
			base = 0
			modifier = {
				add = 50
				OR = {
					AND = {
						OR = {
							highest_held_title_tier = tier_duchy
							AND = {
								has_government = republic_government
								primary_title.tier > 2
							}
							AND = { is_ruler = yes has_government = theocracy_government }
						}
						NOT = { AND = { is_ruler = yes has_government = mercenary_government  } } # Blocked for mercenaries
						portrait_african_clothing_trigger = yes
					}
					AND = {
						exists = primary_spouse
						OR = {
							is_ruler = no
							highest_held_title_tier = tier_barony
						}
						primary_spouse = {
							OR = {
								highest_held_title_tier = tier_duchy
								AND = {
									has_government = republic_government
									primary_title.tier > 2
								}
								AND = { is_ruler = yes has_government = theocracy_government }
							}
							portrait_african_clothing_trigger = yes
						}
					}
				}
			}
		}
	}

	sub_saharan_royalty = {
		dna_modifiers = {
			accessory = {
				mode = add
				gene = headgear
				template = sub_saharan_royalty
				range = { 0 1 } # For the randomness to work correctly
			}
		}		
		weight = {
			base = 0
			modifier = {
				add = 50
				OR = {
					AND = {
						OR = {
							highest_held_title_tier = tier_kingdom
							AND = { is_ruler = yes has_government = theocracy_government }
						}
						NOT = { AND = { is_ruler = yes has_government = mercenary_government  } } # Blocked for mercenaries
						NOT = { has_government = republic_government }
						portrait_african_clothing_trigger = yes
					}
					AND = {
						exists = primary_spouse
						OR = {
							is_ruler = no
							highest_held_title_tier = tier_barony
						}
						primary_spouse = {
							OR = {
								highest_held_title_tier = tier_kingdom
								AND = { is_ruler = yes has_government = theocracy_government }
							}
							NOT = { AND = { is_ruler = yes has_government = mercenary_government  } } # Blocked for mercenaries
							NOT = { has_government = republic_government }
							portrait_african_clothing_trigger = yes
						}
					}
				}
			}
		}
	}

	sub_saharan_imperial = {
		dna_modifiers = {
			accessory = {
				mode = add
				gene = headgear
				template = sub_saharan_imperial
				range = { 0 1 } # For the randomness to work correctly
			}
		}	
		weight = {
			base = 0
			modifier = {
				add = 50
				highest_held_title_tier = tier_empire
				NOR = {
					AND = { is_ruler = yes has_government = mercenary_government  }
					has_government = republic_government
					AND = { is_ruler = yes has_government = theocracy_government }
				}
				portrait_african_clothing_trigger = yes
			}
		}
	}


	sub_saharan_war = {
		dna_modifiers = {
			accessory = {
				mode = add
				gene = headgear
				template = mena_war
				range = { 0 1 } # For the randomness to work correctly
			}
		}	
		weight = {
			base = 0
			modifier = {
				add = 100
				portrait_wear_helmet_trigger = yes
				portrait_african_clothing_trigger = yes
			}
		}
	}




######## Religious ##########


## Orthodox ##

	religious_orthodox_high_clothes = {
	    dna_modifiers = {
	        accessory = {
	            mode = add
	            gene = headgear
	            template = religious_orthodox_high
	            range = { 0 1 }
	        }
	    }
	    outfit_tags = { bishop_outfit }
	    weight = {
	        base = 0
	    }
	}

	religious_orthodox_head_clothes = {
	    dna_modifiers = {
	        accessory = {
	            mode = add
	            gene = headgear
	            template = religious_orthodox_head
	            range = { 0 1 }
	        }
	    }
	    weight = {
	        base = 0
	    }
	}	


## Catholic ##

	catholic_devoted = {
		dna_modifiers = {
			accessory = {
				mode = add
				gene = headgear
				template = religious_catholic_devoted
				range = { 0 1 } # For the randomness to work correctly
			}
		}
		outfit_tags = { monk_outfit }
		weight = {
			base = 0
		}
	}

	catholic_head = {
		outfit_tags = { rank_headgear }
		usage = game
		dna_modifiers = {
			morph = {
				mode = add
				
				gene = gene_bs_ear_outward
				template = ear_outward_neg
				value = 1.0
			}
			accessory = {
				mode = add
				
				gene = headgear
				template = catholic_head
				range = { 0 1 }
			}

			accessory = {
				mode = add
				
				gene = hairstyles
				template = no_hairstyles
				range = { 0 1 }
			}
		}	
		weight = {
			base = 0
		}
	}

	catholic_high = {
		outfit_tags = { rank_headgear }
		usage = game
		dna_modifiers = {
			morph = {
				mode = add
				
				gene = gene_bs_ear_outward
				template = ear_outward_neg
				value = 1.0
			}
			accessory = {
				mode = add
				
				gene = headgear
				template = catholic_high
				range = { 0 1 }
			}

			accessory = {
				mode = add
				
				gene = hairstyles
				template = no_hairstyles
				range = { 0 1 }
			}
		}	
	    weight = {
	        base = 0
	    }
	}

	#religious_catholic_high_headgear = {
	#    dna_modifiers = {
	#        accessory = {
	#            mode = add
	#            gene = headgear
	#            template = religious_orthodox_high
	#            range = { 1 1 }
	#        }
	#    }
	#    outfit_tags = { bishop_outfit }
	#    weight = {
	#        base = 0
	#        modifier = {
	#            factor = 0
	#            OR = {
	#            	AND = {
	#                	is_theocratic_lessee = no
	#                	NOT = { AND = { is_ruler = yes has_government = theocracy_government } }
	#                	NOT = { faith.religious_head = root }
	#                }
	#                NOT = { faith = { religion_tag = christianity_religion } }
	#            }
	#        }
	#    }
	#}



	popes = {
		outfit_tags = { rank_headgear }
		usage = game
		dna_modifiers = {
			morph = {
				mode = add
				
				gene = gene_bs_ear_outward
				template = ear_outward_neg
				value = 1.0
			}
			accessory = {
				mode = add
				
				gene = headgear
				template = catholic_head
				range = { 0 1 }
			}

			accessory = {
				mode = add
				
				gene = hairstyles
				template = no_hairstyles
				range = { 0 1 }
			}
		}	
		weight = {
			base = 0
		}
	}

## Jewish ##

	religious_jewish_head = {
		outfit_tags = { rank_headgear }
		usage = game
		dna_modifiers = {
			accessory = {
				mode = add
				
				gene = headgear
				template = religious_jewish_head
				range = { 0 1 }
			}

			#accessory = {
			#	mode = add
			#	
			#	gene = hairstyles
			#	template = no_hairstyles
			#	range = { 0 1 }
			#}
		}	
		weight = {
	        base = 0
	    }
	}

## Muslim ##	

	religious_muslim_high_headgear = {
	    dna_modifiers = {
	        accessory = {
	            mode = add
	            gene = headgear
	            template = religious_muslim_high
	            range = { 0 1 }
	        }
	    }
	    weight = {
	        base = 0
	    }
	}



## Northern Pagan ##

	religious_northern_high_headgear = {
	    dna_modifiers = {
	        accessory = {
	            mode = add
	            gene = headgear
	            template = religious_northern_high
	            range = { 0 1 }
	        }
	    }
	    weight = {
	        base = 0
	    }
	}


## Steppe ##

	religious_steppe_high_headgear = {
	    dna_modifiers = {
	        accessory = {
	            mode = add
	            gene = headgear
	            template = religious_steppe_high
	            range = { 0 1 }
	        }
	    }
	    weight = {
	        base = 0
	    }
	}

## Buddhist ##

	religious_buddhist_devoted_headgear = {
		dna_modifiers = {
			accessory = {
				mode = add
				gene = headgear
				template = no_headgear
				range = { 0 1 } # For the randomness to work correctly
			}
			accessory = {
				mode = add
				gene = hairstyles
				template = no_hairstyles
				range = { 0 1 } # For the randomness to work correctly
			}
		}
		weight = {
			base = 0
		}
	}

	religious_buddhist_high_headgear = {
	    dna_modifiers = {
			accessory = {
				mode = add
				gene = headgear
				template = no_headgear
				range = { 0 1 } # For the randomness to work correctly
			}
			accessory = {
				mode = add
				gene = hairstyles
				template = no_hairstyles
				range = { 0 1 } # For the randomness to work correctly
			}
	    }
	    weight = {
	        base = 0
	    }
	}

## Hinduist ##

	religious_hindu_devoted_headgear = {
		dna_modifiers = {
			accessory = {
				mode = add
				gene = headgear
				template = no_headgear
				range = { 0 1 } # For the randomness to work correctly
			}
		}
		weight = {
			base = 0
		}
	}

	religious_hindu_high_headgear = {
	    dna_modifiers = {
			accessory = {
				mode = add
				gene = headgear
				template = no_headgear
				range = { 0 1 } # For the randomness to work correctly
			}
	    }
	    weight = {
	        base = 0
	    }
	}

## Zoroastrian ##

	religious_zoroastrian_high_headgear = {
	    dna_modifiers = {
	        accessory = {
	            mode = add
	            gene = headgear
	            template = religious_zoroastrian_high
	            range = { 0 1 }
	        }
	    }
	    weight = {
	        base = 0
	    }
	}


## Jewish ##

	religious_jewish_high_headgear = {
	    dna_modifiers = {
	        accessory = {
	            mode = add
	            gene = headgear
	            template = religious_jewish_high
	            range = { 0 1 }
	        }
	    }
	    weight = {
	        base = 0
	    }
	}


## Jain ##

	religious_jain_devoted_headgear = {
		dna_modifiers = {
			accessory = {
				mode = add
				gene = headgear
				template = no_headgear
				range = { 0 1 } # For the randomness to work correctly
			}
		}
		weight = {
			base = 0
		}
	}

	religious_jain_high_headgear = {
	    dna_modifiers = {
			accessory = {
				mode = add
				gene = headgear
				template = no_headgear
				range = { 0 1 } # For the randomness to work correctly
			}
	    }
	    weight = {
	        base = 0
	    }
	}

## African Pagan ##

	# religious_african_devoted_clothes = {
	# 	dna_modifiers = {
	# 		accessory = {
	# 			mode = add
	# 			gene = clothes
	# 			template = mena_commoner_clothes
	# 			range = { 0 1 } # For the randomness to work correctly
	# 		}
	# 	}
	# 	weight = {
	# 		base = 0
	# 		modifier = {
	# 			add = 100
	# 			has_trait = devoted
	# 			religion = religion:islam_religion
	# 		}
	# 	}
	# }

	religious_african_high_headgear = {
	    dna_modifiers = {
	        accessory = {
	            mode = add
	            gene = headgear
	            template = religious_african_high
	            range = { 0 1 }
	        }
	    }
	    weight = {
	        base = 0
	    }
	}

	# religious_muslim_head_clothes = {
	#     dna_modifiers = {
	#         accessory = {
	#             mode = add
	#             gene = clothes
	#             template = religious_muslim_high_clothes
	#             range = { 0 1 }
	#         }
	#     }
	#     weight = {
	#         base = 0
	#         modifier = {
	#             add = 60
	# 			is_ruler = yes
	# 			primary_title = {
	# 				exists = controlled_faith
	# 				controlled_faith = faith:orthodox
	# 			}
	#         }
	#     }
	# }	



	################
	# # ANBENNAR # #
	################

	elven_nobles = {
		dna_modifiers = {
			accessory = {
				mode = add
				gene = headgear
				template = elven_nobility
				range = { 0 1 } # For the randomness to work correctly
			}
		}	
		weight = {
			base = 0
			modifier = {
				add = 100
				OR = {
					AND = {
						OR = {
							highest_held_title_tier >= tier_duchy
							AND = {
								has_government = republic_government
								primary_title.tier > 2
							}
							AND = { is_ruler = yes has_government = theocracy_government }
						}
						NOT = { # Blocked for mercenaries
							AND = { 
								is_ruler = yes
								has_government = mercenary_government  
							} 
						}
						portrait_elven_clothing_trigger = yes
					}
					AND = {
						exists = primary_spouse
						OR = {
							is_ruler = no
							highest_held_title_tier = tier_barony
						}
						OR = {
							has_trait = elf
							has_trait = half_elf
						}
						primary_spouse = {
							OR = {
								highest_held_title_tier >= tier_duchy
								AND = {
									has_government = republic_government
									primary_title.tier > 2
								}
								AND = { is_ruler = yes has_government = theocracy_government }
							}
							portrait_elven_clothing_trigger = yes
						}
					}
				}
			}
		}
	}


## kheteratan ##

	kheteratan_commoners = {

		dna_modifiers = {
			accessory = {
				mode = add
				gene = headgear
				template = kheteratan_common
				range = { 0 1 } # For the randomness to work correctly
			}
		}	
		weight = {
			base = 0
			modifier = {
				add = 20
				highest_held_title_tier < tier_county
				NOR = {
					AND = {
						exists = primary_spouse
						primary_spouse = {
							highest_held_title_tier > tier_county
						}
					}
					AND = {
						has_government = republic_government
						primary_title.tier > 1
					}
					AND = { is_ruler = yes has_government = theocracy_government }
				}
				OR = {
					portrait_kheteratan_clothing_trigger = yes
				}
			}
		}
	}

	kheteratan_low_nobles = {
		dna_modifiers = {
			accessory = {
				mode = add
				gene = headgear
				template = kheteratan_high_nobility
				range = { 0 1 } # For the randomness to work correctly
			}
		}	
		weight = {
			base = 0
			modifier = {
				add = 50
				OR = {
					AND = {
						highest_held_title_tier = tier_county
						NOR = {
							# has_dynasty = no
							AND = {
								has_government = republic_government
								primary_title.tier > 1
							}
							AND = { is_ruler = yes has_government = theocracy_government }
						}
						OR = {
							portrait_kheteratan_clothing_trigger = yes
						}
					}
					AND = {
						exists = primary_spouse
						OR = {
							is_ruler = no
							highest_held_title_tier = tier_barony
						}
						primary_spouse = {
							highest_held_title_tier = tier_county
							NOR = {
								# has_dynasty = no
								AND = {
									has_government = republic_government
									primary_title.tier > 1
								}
								AND = { is_ruler = yes has_government = theocracy_government }
							}
							OR = {
								portrait_kheteratan_clothing_trigger = yes
							}
						}
					}
				}
			}
		}
	}

	kheteratan_high_nobles = {
		dna_modifiers = {
			accessory = {
				mode = add
				gene = headgear
				template = kheteratan_high_nobility
				range = { 0 1 } # For the randomness to work correctly
			}
		}	
		weight = {
			base = 0
			modifier = {
				add = 50
				OR = {
					AND = {
						OR = {
							highest_held_title_tier = tier_duchy
							AND = {
								has_government = republic_government
								primary_title.tier > 2
							}
							AND = { is_ruler = yes has_government = theocracy_government }
						}
						NOT = { AND = { is_ruler = yes has_government = mercenary_government  } } # Blocked for mercenaries
						portrait_kheteratan_clothing_trigger = yes
					}
					AND = {
						exists = primary_spouse
						OR = {
							is_ruler = no
							highest_held_title_tier = tier_barony
						}
						primary_spouse = {
							OR = {
								highest_held_title_tier = tier_duchy
								AND = {
									has_government = republic_government
									primary_title.tier > 2
								}
								AND = { is_ruler = yes has_government = theocracy_government }
							}
							portrait_kheteratan_clothing_trigger = yes
						}
					}
				}
			}
		}
	}

	kheteratan_royalty = {
		dna_modifiers = {
			accessory = {
				mode = add
				gene = headgear
				template = kheteratan_royalty
				range = { 0 1 } # For the randomness to work correctly
			}
		}	
		weight = {
			base = 0
			modifier = {
				add = 50
				OR = {
					AND = {
						OR = {
							highest_held_title_tier = tier_kingdom
							AND = { is_ruler = yes has_government = theocracy_government }
						}
						NOT = { AND = { is_ruler = yes has_government = mercenary_government  } } # Blocked for mercenaries
						NOT = { has_government = republic_government }
						portrait_kheteratan_clothing_trigger = yes
					}
					AND = {
						exists = primary_spouse
						OR = {
							is_ruler = no
							highest_held_title_tier = tier_barony
						}
						primary_spouse = {
							OR = {
								highest_held_title_tier = tier_kingdom
								AND = { is_ruler = yes has_government = theocracy_government }
							}
							NOT = { AND = { is_ruler = yes has_government = mercenary_government  } } # Blocked for mercenaries
							NOT = { has_government = republic_government }
							portrait_kheteratan_clothing_trigger = yes
						}
					}
				}
			}
		}
	}

	kheteratan_imperial = {
		dna_modifiers = {
			accessory = {
				mode = add
				gene = headgear
				template = kheteratan_imperial
				range = { 0 1 } # For the randomness to work correctly
			}
			accessory = {
				mode = add
				gene = headgear_2
				template = egyptian_pharaoh
				range = { 0 1 } # For the randomness to work correctly
			}
			accessory = {
				mode = add
				gene = headgear_3
				template = egyptian_pharaoh
				range = { 0 1 } # For the randomness to work correctly
			}			
		}	
		weight = {
			base = 0
			modifier = {
				add = 50
				OR = {
					AND = {
						OR = {
							highest_held_title_tier = tier_empire
							AND = { is_ruler = yes has_government = theocracy_government }
						}
						NOT = { AND = { is_ruler = yes has_government = mercenary_government  } } # Blocked for mercenaries
						NOT = { has_government = republic_government }
						portrait_kheteratan_clothing_trigger = yes
					}
					AND = {
						exists = primary_spouse
						OR = {
							is_ruler = no
							highest_held_title_tier = tier_barony
						}
						primary_spouse = {
							OR = {
								highest_held_title_tier = tier_empire
								AND = { is_ruler = yes has_government = theocracy_government }
							}
							NOT = { AND = { is_ruler = yes has_government = mercenary_government  } } # Blocked for mercenaries
							NOT = { has_government = republic_government }
							portrait_kheteratan_clothing_trigger = yes
						}
					}
				}

			}
		}
	}


	kheteratan_war = {
		dna_modifiers = {
			accessory = {
				mode = add
				gene = headgear
				template = dde_hre_war
				range = { 0 1 } # For the randomness to work correctly
			}
		}	
		weight = {
			base = 0
			modifier = {
				add = 101 # larger than the western war headgear
				portrait_wear_helmet_trigger = yes
				portrait_kheteratan_clothing_trigger = yes
			}
		}
	}	
	
}