﻿default_mystic_character = {
	age = { 30 80 }
	trait = mystic_1
	random_traits = yes
	faith = root.faith
	gender_female_chance = {
		if = {
			limit = { root.faith = { has_doctrine = doctrine_gender_male_dominated } }
			add = 0
		}
		else_if = {
			limit = { root.faith = { has_doctrine = doctrine_gender_female_dominated } }
			add = 100
		}
		else = {
			add = 50
		}
	}
	learning = max_template_high_skill
	#Anbennar
	after_creation = {
		if = {
			limit = {
				NOT = { has_racial_trait = yes }
			}
			assign_racial_trait_effect = yes
		}
	}
}