729 = {

    # Misc
    culture = black_castanorian
    religion = cult_of_the_dame

    # History
}

730 = {

    # Misc
    culture = black_castanorian
    religion = cult_of_the_dame

    # History
}

732 = {

    # Misc
    culture = black_castanorian
    religion = cult_of_the_dame

    # History
}

741 = {

    # Misc
    culture = black_castanorian
    religion = cult_of_the_dame

    # History
}

742 = {

    # Misc
    culture = black_castanorian
    religion = cult_of_the_dame

    # History
}

744 = {

    # Misc
    culture = black_castanorian
    religion = cult_of_the_dame

    # History
}

745 = {

    # Misc
    culture = black_castanorian
    religion = cult_of_the_dame

    # History
}

748 = {

    # Misc
    culture = black_castanorian
    religion = cult_of_the_dame

    # History
}

749 = {

    # Misc
    culture = black_castanorian
    religion = cult_of_the_dame

    # History
}

733 = {

    # Misc
    culture = white_reachmen
    religion = cult_of_the_dame

    # History
}

734 = {

    # Misc
    culture = white_reachmen
    religion = cult_of_the_dame

    # History
}

735 = {

    # Misc
    culture = white_reachmen
    religion = cult_of_the_dame

    # History
}

736 = {

    # Misc
    culture = white_reachmen
    religion = cult_of_the_dame

    # History
}

737 = {

    # Misc
    culture = white_reachmen
    religion = cult_of_the_dame

    # History
}

738 = {

    # Misc
    culture = white_reachmen
    religion = cult_of_the_dame

    # History
}

739 = {

    # Misc
    culture = white_reachmen
    religion = cult_of_the_dame

    # History
}

740 = {

    # Misc
    culture = white_reachmen
    religion = cult_of_the_dame

    # History
	1020.1.1 = {
		special_building_slot = castanorian_citadel_bal_vroren_01
		special_building = castanorian_citadel_bal_vroren_01
	}
}

701 = {

    # Misc
    culture = white_reachmen
    religion = cult_of_the_dame
	holding = city_holding

    # History
}

707 = {

    # Misc
    culture = white_reachmen
    religion = cult_of_the_dame

    # History
}

709 = {

    # Misc
    culture = white_reachmen
    religion = cult_of_the_dame
	holding = city_holding

    # History
}

711 = {

    # Misc
    culture = white_reachmen
    religion = cult_of_the_dame

    # History
}

712 = {

    # Misc
    culture = white_reachmen
    religion = cult_of_the_dame

    # History
}

713 = {

    # Misc
    culture = white_reachmen
    religion = cult_of_the_dame

    # History
}

714 = {

    # Misc
    culture = white_reachmen
    religion = cult_of_the_dame
	holding = city_holding

    # History
}

715 = {

    # Misc
    culture = white_reachmen
    religion = cult_of_the_dame
	holding = city_holding

    # History
}

716 = {

    # Misc
    culture = white_reachmen
    religion = cult_of_the_dame

    # History
}

717 = {

    # Misc
    culture = white_reachmen
    religion = cult_of_the_dame

    # History
}

718 = {

    # Misc
    culture = white_reachmen
    religion = cult_of_the_dame

    # History
}

719 = {

    # Misc
    culture = white_reachmen
    religion = cult_of_the_dame

    # History
}

720 = {

    # Misc
    culture = white_reachmen
    religion = cult_of_the_dame

    # History
}