383 = {

    # Misc
    culture = desha
    religion = cult_of_the_dame
	holding = castle_holding

    # History
}

384 = {

    # Misc
    culture = akani
    religion = cult_of_the_dame
	holding = castle_holding

    # History
}

385 = {

    # Misc
    culture = akani
    religion = cult_of_the_dame
	holding = castle_holding

    # History
}

395 = {

    # Misc
    culture = desha
    religion = cult_of_the_dame
	holding = castle_holding

    # History
}

396 = {

    # Misc
    culture = desha
    religion = cult_of_the_dame
	holding = castle_holding

    # History
}

398 = {

    # Misc
    culture = desha
    religion = cult_of_the_dame
	holding = castle_holding

    # History
}

400 = {

    # Misc
    culture = akani
    religion = cult_of_the_dame
	holding = castle_holding

    # History
}

401 = {

    # Misc
    culture = akani
    religion = cult_of_the_dame
	holding = castle_holding

    # History
}

406 = {

    # Misc
    culture = akani
    religion = cult_of_the_dame
	holding = castle_holding

    # History
}