573 = {

    # Misc
    culture = brasanni
    religion = cult_of_the_dame

    # History
}

574 = {

    # Misc
    culture = brasanni
    religion = cult_of_the_dame

    # History
}

577 = {

    # Misc
    culture = brasanni
    religion = cult_of_the_dame

    # History
}

578 = {

    # Misc
    culture = brasanni
    religion = cult_of_the_dame

    # History
}

580 = {

    # Misc
    culture = brasanni
    religion = cult_of_the_dame

    # History
}

582 = {

    # Misc
    culture = brasanni
    religion = cult_of_the_dame

    # History
}