﻿object={
	name="amb_3D_desert_emitter"
	clamp_to_water_level=no
	render_under_water=no
	generated_content=no
	layer="building_layer"
	entity="map_ambient_3D_desert"
	count=108
	transform="4502.864258 0.000000 412.265625 0.000000 0.000000 0.000000 1.000000 1.000000 1.000000 1.000000
220.487778 0.000000 726.859375 0.000000 0.000000 0.000000 1.000000 1.000000 1.000000 1.000000
392.847412 0.000000 670.562988 0.000000 0.000000 0.000000 1.000000 1.000000 1.000000 1.000000
576.211487 0.000000 718.023987 0.000000 0.000000 0.000000 1.000000 1.000000 1.000000 1.000000
779.557007 0.000000 693.463013 0.000000 0.000000 0.000000 1.000000 1.000000 1.000000 1.000000
1003.807495 0.000000 694.204834 0.000000 0.000000 0.000000 1.000000 1.000000 1.000000 1.000000
1250.975952 0.000000 675.295715 0.000000 0.000000 0.000000 1.000000 1.000000 1.000000 1.000000
1500.407593 0.000000 607.811768 0.000000 0.000000 0.000000 1.000000 1.000000 1.000000 1.000000
1746.114502 0.000000 528.022705 0.000000 0.000000 0.000000 1.000000 1.000000 1.000000 1.000000
1958.525757 0.000000 574.321472 0.000000 0.000000 0.000000 1.000000 1.000000 1.000000 1.000000
2197.037109 0.000000 529.284668 0.000000 0.000000 0.000000 1.000000 1.000000 1.000000 1.000000
2447.652100 0.000000 621.342407 0.000000 0.000000 0.000000 1.000000 1.000000 1.000000 1.000000
2679.200684 0.000000 677.697510 0.000000 0.000000 0.000000 1.000000 1.000000 1.000000 1.000000
2949.817871 0.000000 621.617126 0.000000 0.000000 0.000000 1.000000 1.000000 1.000000 1.000000
3287.066162 0.000000 484.672180 0.000000 0.000000 0.000000 1.000000 1.000000 1.000000 1.000000
3531.812012 0.000000 281.206726 0.000000 0.000000 0.000000 1.000000 1.000000 1.000000 1.000000
3352.577637 0.000000 135.012833 0.000000 0.000000 0.000000 1.000000 1.000000 1.000000 1.000000
223.321609 0.000000 838.588684 0.000000 0.000000 0.000000 1.000000 1.000000 1.000000 1.000000
229.320236 0.000000 948.037476 0.000000 0.000000 0.000000 1.000000 1.000000 1.000000 1.000000
307.409912 0.000000 1059.383301 0.000000 0.000000 0.000000 1.000000 1.000000 1.000000 1.000000
488.003448 0.000000 915.182251 0.000000 0.000000 0.000000 1.000000 1.000000 1.000000 1.000000
653.557617 0.000000 839.074036 0.000000 0.000000 0.000000 1.000000 1.000000 1.000000 1.000000
653.548157 0.000000 947.838989 0.000000 0.000000 0.000000 1.000000 1.000000 1.000000 1.000000
551.917114 0.000000 1067.900146 0.000000 0.000000 0.000000 1.000000 1.000000 1.000000 1.000000
660.897705 0.000000 1111.363281 0.000000 0.000000 0.000000 1.000000 1.000000 1.000000 1.000000
769.778381 0.000000 1180.431030 0.000000 0.000000 0.000000 1.000000 1.000000 1.000000 1.000000
604.309875 0.000000 1214.268066 0.000000 0.000000 0.000000 1.000000 1.000000 1.000000 1.000000
826.914795 0.000000 1026.684448 0.000000 0.000000 0.000000 1.000000 1.000000 1.000000 1.000000
798.677490 0.000000 894.102966 0.000000 0.000000 0.000000 1.000000 1.000000 1.000000 1.000000
954.729614 0.000000 854.028992 0.000000 0.000000 0.000000 1.000000 1.000000 1.000000 1.000000
1107.437256 0.000000 795.645752 0.000000 0.000000 0.000000 1.000000 1.000000 1.000000 1.000000
1259.708374 0.000000 816.514648 0.000000 0.000000 0.000000 1.000000 1.000000 1.000000 1.000000
1363.996582 0.000000 906.217285 0.000000 0.000000 0.000000 1.000000 1.000000 1.000000 1.000000
1501.269653 0.000000 878.521423 0.000000 0.000000 0.000000 1.000000 1.000000 1.000000 1.000000
1434.684082 0.000000 738.236328 0.000000 0.000000 0.000000 1.000000 1.000000 1.000000 1.000000
1640.828247 0.000000 883.805664 0.000000 0.000000 0.000000 1.000000 1.000000 1.000000 1.000000
1607.951538 0.000000 722.533752 0.000000 0.000000 0.000000 1.000000 1.000000 1.000000 1.000000
1728.416870 0.000000 740.290100 0.000000 0.000000 0.000000 1.000000 1.000000 1.000000 1.000000
1856.219727 0.000000 737.950439 0.000000 0.000000 0.000000 1.000000 1.000000 1.000000 1.000000
1861.004150 0.000000 867.249390 0.000000 0.000000 0.000000 1.000000 1.000000 1.000000 1.000000
1782.756592 0.000000 1006.624084 0.000000 0.000000 0.000000 1.000000 1.000000 1.000000 1.000000
1865.663818 0.000000 1132.483154 0.000000 0.000000 0.000000 1.000000 1.000000 1.000000 1.000000
1652.708740 0.000000 1129.318604 0.000000 0.000000 0.000000 1.000000 1.000000 1.000000 1.000000
1587.499390 0.000000 991.375610 0.000000 0.000000 0.000000 1.000000 1.000000 1.000000 1.000000
1446.809814 0.000000 1105.507568 0.000000 0.000000 0.000000 1.000000 1.000000 1.000000 1.000000
1276.226196 0.000000 1148.551880 0.000000 0.000000 0.000000 1.000000 1.000000 1.000000 1.000000
1204.826050 0.000000 1012.249023 0.000000 0.000000 0.000000 1.000000 1.000000 1.000000 1.000000
1422.083740 0.000000 1272.041626 0.000000 0.000000 0.000000 1.000000 1.000000 1.000000 1.000000
1596.864258 0.000000 1272.841919 0.000000 0.000000 0.000000 1.000000 1.000000 1.000000 1.000000
1760.587158 0.000000 1292.270264 0.000000 0.000000 0.000000 1.000000 1.000000 1.000000 1.000000
2004.554932 0.000000 1223.871094 0.000000 0.000000 0.000000 1.000000 1.000000 1.000000 1.000000
2061.267090 0.000000 1055.074585 0.000000 0.000000 0.000000 1.000000 1.000000 1.000000 1.000000
2004.465942 0.000000 913.939148 0.000000 0.000000 0.000000 1.000000 1.000000 1.000000 1.000000
2164.168701 0.000000 908.516296 0.000000 0.000000 0.000000 1.000000 1.000000 1.000000 1.000000
2235.964844 0.000000 1045.462402 0.000000 0.000000 0.000000 1.000000 1.000000 1.000000 1.000000
2217.305176 0.000000 1189.205444 0.000000 0.000000 0.000000 1.000000 1.000000 1.000000 1.000000
2410.172119 0.000000 1138.997437 0.000000 0.000000 0.000000 1.000000 1.000000 1.000000 1.000000
2419.612549 0.000000 981.294128 0.000000 0.000000 0.000000 1.000000 1.000000 1.000000 1.000000
2553.179443 0.000000 1036.325317 0.000000 0.000000 0.000000 1.000000 1.000000 1.000000 1.000000
2546.480469 0.000000 1225.257812 0.000000 0.000000 0.000000 1.000000 1.000000 1.000000 1.000000
2408.085205 0.000000 1271.820435 0.000000 0.000000 0.000000 1.000000 1.000000 1.000000 1.000000
2540.679443 0.000000 823.238525 0.000000 0.000000 0.000000 1.000000 1.000000 1.000000 1.000000
2678.023926 0.000000 874.787048 0.000000 0.000000 0.000000 1.000000 1.000000 1.000000 1.000000
2391.385254 0.000000 844.261108 0.000000 0.000000 0.000000 1.000000 1.000000 1.000000 1.000000
2251.828369 0.000000 698.391357 0.000000 0.000000 0.000000 1.000000 1.000000 1.000000 1.000000
2067.361328 0.000000 725.019775 0.000000 0.000000 0.000000 1.000000 1.000000 1.000000 1.000000
1630.394165 0.000000 598.197449 0.000000 0.000000 0.000000 1.000000 1.000000 1.000000 1.000000
1329.226929 0.000000 540.018555 0.000000 0.000000 0.000000 1.000000 1.000000 1.000000 1.000000
361.192169 0.000000 1189.768066 0.000000 0.000000 0.000000 1.000000 1.000000 1.000000 1.000000
1028.890747 0.000000 1041.277344 0.000000 0.000000 0.000000 1.000000 1.000000 1.000000 1.000000
1230.380615 0.000000 1308.620361 0.000000 0.000000 0.000000 1.000000 1.000000 1.000000 1.000000
1041.866211 0.000000 1299.805176 0.000000 0.000000 0.000000 1.000000 1.000000 1.000000 1.000000
820.289062 0.000000 1334.652954 0.000000 0.000000 0.000000 1.000000 1.000000 1.000000 1.000000
3679.205811 0.000000 360.799805 0.000000 0.000000 0.000000 1.000000 1.000000 1.000000 1.000000
3503.588135 0.000000 651.125366 0.000000 0.000000 0.000000 1.000000 1.000000 1.000000 1.000000
3720.477295 0.000000 802.255188 0.000000 0.000000 0.000000 1.000000 1.000000 1.000000 1.000000
3963.287109 0.000000 844.712402 0.000000 0.000000 0.000000 1.000000 1.000000 1.000000 1.000000
4058.458252 0.000000 988.236450 0.000000 0.000000 0.000000 1.000000 1.000000 1.000000 1.000000
3914.185547 0.000000 1076.473877 0.000000 0.000000 0.000000 1.000000 1.000000 1.000000 1.000000
3678.259521 0.000000 1068.175903 0.000000 0.000000 0.000000 1.000000 1.000000 1.000000 1.000000
3596.396729 0.000000 1196.903931 0.000000 0.000000 0.000000 1.000000 1.000000 1.000000 1.000000
3437.357422 0.000000 1361.798462 0.000000 0.000000 0.000000 1.000000 1.000000 1.000000 1.000000
3482.408691 0.000000 1232.785767 0.000000 0.000000 0.000000 1.000000 1.000000 1.000000 1.000000
3335.603027 0.000000 1464.437988 0.000000 0.000000 0.000000 1.000000 1.000000 1.000000 1.000000
3268.371094 0.000000 1609.942383 0.000000 0.000000 0.000000 1.000000 1.000000 1.000000 1.000000
3207.986328 0.000000 1404.382812 0.000000 0.000000 0.000000 1.000000 1.000000 1.000000 1.000000
3206.677734 0.000000 1247.416260 0.000000 0.000000 0.000000 1.000000 1.000000 1.000000 1.000000
3301.507080 0.000000 1106.648682 0.000000 0.000000 0.000000 1.000000 1.000000 1.000000 1.000000
3453.346191 0.000000 1049.539551 0.000000 0.000000 0.000000 1.000000 1.000000 1.000000 1.000000
3329.311768 0.000000 975.939697 0.000000 0.000000 0.000000 1.000000 1.000000 1.000000 1.000000
3508.886963 0.000000 858.425293 0.000000 0.000000 0.000000 1.000000 1.000000 1.000000 1.000000
3638.809570 0.000000 911.479492 0.000000 0.000000 0.000000 1.000000 1.000000 1.000000 1.000000
3852.405518 0.000000 935.974121 0.000000 0.000000 0.000000 1.000000 1.000000 1.000000 1.000000
4054.970215 0.000000 1244.143311 0.000000 0.000000 0.000000 1.000000 1.000000 1.000000 1.000000
4185.641113 0.000000 1218.312012 0.000000 0.000000 0.000000 1.000000 1.000000 1.000000 1.000000
4416.068848 0.000000 1279.038330 0.000000 0.000000 0.000000 1.000000 1.000000 1.000000 1.000000
4312.270508 0.000000 1349.156616 0.000000 0.000000 0.000000 1.000000 1.000000 1.000000 1.000000
4338.015625 0.000000 1457.491943 0.000000 0.000000 0.000000 1.000000 1.000000 1.000000 1.000000
4220.597656 0.000000 1473.807861 0.000000 0.000000 0.000000 1.000000 1.000000 1.000000 1.000000
4193.761230 0.000000 1600.516846 0.000000 0.000000 0.000000 1.000000 1.000000 1.000000 1.000000
4122.025879 0.000000 1698.371338 0.000000 0.000000 0.000000 1.000000 1.000000 1.000000 1.000000
3978.908691 0.000000 1665.846313 0.000000 0.000000 0.000000 1.000000 1.000000 1.000000 1.000000
3868.049072 0.000000 1722.959961 0.000000 0.000000 0.000000 1.000000 1.000000 1.000000 1.000000
4541.678223 0.000000 1447.007080 0.000000 0.000000 0.000000 1.000000 1.000000 1.000000 1.000000
4627.751953 0.000000 1316.716064 0.000000 0.000000 0.000000 1.000000 1.000000 1.000000 1.000000
4766.364258 0.000000 1410.804932 0.000000 0.000000 0.000000 1.000000 1.000000 1.000000 1.000000
4781.228027 0.000000 1264.854004 0.000000 0.000000 0.000000 1.000000 1.000000 1.000000 1.000000
4929.220703 0.000000 1442.998901 0.000000 0.000000 0.000000 1.000000 1.000000 1.000000 1.000000
"}
object={
	name="amb_3D_field_emitter"
	clamp_to_water_level=no
	render_under_water=no
	generated_content=no
	layer="building_layer"
	entity="map_ambient_3D_field"
	count=33
	transform="4511.541504 0.000000 332.670959 0.000000 0.000000 0.000000 1.000000 1.000000 1.000000 1.000000
555.371521 0.000000 384.889832 0.000000 0.000000 0.000000 1.000000 1.000000 1.000000 1.000000
620.294556 0.000000 459.228546 0.000000 0.000000 0.000000 1.000000 1.000000 1.000000 1.000000
707.891113 0.000000 491.818665 0.000000 0.000000 0.000000 1.000000 1.000000 1.000000 1.000000
821.582825 0.000000 519.964783 0.000000 0.000000 0.000000 1.000000 1.000000 1.000000 1.000000
839.000916 0.000000 610.766724 0.000000 0.000000 0.000000 1.000000 1.000000 1.000000 1.000000
284.667816 0.000000 626.473511 0.000000 0.000000 0.000000 1.000000 1.000000 1.000000 1.000000
183.846466 0.000000 637.489258 0.000000 0.000000 0.000000 1.000000 1.000000 1.000000 1.000000
1454.071899 0.000000 114.927322 0.000000 0.000000 0.000000 1.000000 1.000000 1.000000 1.000000
1503.349121 0.000000 60.894432 0.000000 0.000000 0.000000 1.000000 1.000000 1.000000 1.000000
2864.032227 0.000000 610.562012 0.000000 0.000000 0.000000 1.000000 1.000000 1.000000 1.000000
2908.675293 0.000000 716.360840 0.000000 0.000000 0.000000 1.000000 1.000000 1.000000 1.000000
2740.524170 0.000000 754.829529 0.000000 0.000000 0.000000 1.000000 1.000000 1.000000 1.000000
2747.670898 0.000000 911.457031 0.000000 0.000000 0.000000 1.000000 1.000000 1.000000 1.000000
344.920685 0.000000 841.708191 0.000000 0.000000 0.000000 1.000000 1.000000 1.000000 1.000000
1000.363342 0.000000 1135.358643 0.000000 0.000000 0.000000 1.000000 1.000000 1.000000 1.000000
1685.598633 0.000000 420.353119 0.000000 0.000000 0.000000 1.000000 1.000000 1.000000 1.000000
1797.198120 0.000000 440.975586 0.000000 0.000000 0.000000 1.000000 1.000000 1.000000 1.000000
1925.372070 0.000000 406.186401 0.000000 0.000000 0.000000 1.000000 1.000000 1.000000 1.000000
5181.025391 0.000000 405.437073 0.000000 0.000000 0.000000 1.000000 1.000000 1.000000 1.000000
5113.941406 0.000000 1395.676636 0.000000 0.000000 0.000000 1.000000 1.000000 1.000000 1.000000
5026.640137 0.000000 1440.957886 0.000000 0.000000 0.000000 1.000000 1.000000 1.000000 1.000000
4846.111328 0.000000 1634.124512 0.000000 0.000000 0.000000 1.000000 1.000000 1.000000 1.000000
4743.778809 0.000000 1557.194214 0.000000 0.000000 0.000000 1.000000 1.000000 1.000000 1.000000
2126.335938 0.000000 2288.708252 0.000000 0.000000 0.000000 1.000000 1.000000 1.000000 1.000000
2190.310547 0.000000 3011.238281 0.000000 0.000000 0.000000 1.000000 1.000000 1.000000 1.000000
2490.017578 0.000000 2777.440186 0.000000 0.000000 0.000000 1.000000 1.000000 1.000000 1.000000
2294.654053 0.000000 2803.386475 0.000000 0.000000 0.000000 1.000000 1.000000 1.000000 1.000000
3546.156738 0.000000 1960.086792 0.000000 0.000000 0.000000 1.000000 1.000000 1.000000 1.000000
3490.439697 0.000000 1533.436401 0.000000 0.000000 0.000000 1.000000 1.000000 1.000000 1.000000
3364.883301 0.000000 1557.092285 0.000000 0.000000 0.000000 1.000000 1.000000 1.000000 1.000000
3542.821533 0.000000 1408.100098 0.000000 0.000000 0.000000 1.000000 1.000000 1.000000 1.000000
3312.264893 0.000000 1720.607300 0.000000 0.000000 0.000000 1.000000 1.000000 1.000000 1.000000
"}
object={
	name="amb_3D_forest_emitter"
	clamp_to_water_level=no
	render_under_water=no
	generated_content=no
	layer="building_layer"
	entity="map_ambient_3D_forest"
	count=31
	transform="4465.613281 0.000000 264.056702 0.000000 0.000000 0.000000 1.000000 1.000000 1.000000 1.000000
2488.381592 0.000000 3030.838867 0.000000 0.000000 0.000000 1.000000 1.000000 1.000000 1.000000
2163.971436 0.000000 3968.852051 0.000000 0.000000 0.000000 1.000000 1.000000 1.000000 1.000000
2379.910156 0.000000 2928.208740 0.000000 0.000000 0.000000 1.000000 1.000000 1.000000 1.000000
2271.162598 0.000000 2974.963379 0.000000 0.000000 0.000000 1.000000 1.000000 1.000000 1.000000
2176.670166 0.000000 3068.534912 0.000000 0.000000 0.000000 1.000000 1.000000 1.000000 1.000000
2118.277100 0.000000 2944.231689 0.000000 0.000000 0.000000 1.000000 1.000000 1.000000 1.000000
2213.923828 0.000000 2886.357422 0.000000 0.000000 0.000000 1.000000 1.000000 1.000000 1.000000
2321.752686 0.000000 2845.884277 0.000000 0.000000 0.000000 1.000000 1.000000 1.000000 1.000000
2209.639160 0.000000 2783.914795 0.000000 0.000000 0.000000 1.000000 1.000000 1.000000 1.000000
2130.893066 0.000000 2411.173096 0.000000 0.000000 0.000000 1.000000 1.000000 1.000000 1.000000
2141.578125 0.000000 2534.567871 0.000000 0.000000 0.000000 1.000000 1.000000 1.000000 1.000000
2118.591064 0.000000 2745.480957 0.000000 0.000000 0.000000 1.000000 1.000000 1.000000 1.000000
2317.616455 0.000000 2718.695312 0.000000 0.000000 0.000000 1.000000 1.000000 1.000000 1.000000
2447.116211 0.000000 2797.391113 0.000000 0.000000 0.000000 1.000000 1.000000 1.000000 1.000000
2550.287109 0.000000 2803.483154 0.000000 0.000000 0.000000 1.000000 1.000000 1.000000 1.000000
2595.668945 0.000000 2715.752686 0.000000 0.000000 0.000000 1.000000 1.000000 1.000000 1.000000
2703.015869 0.000000 2686.990967 0.000000 0.000000 0.000000 1.000000 1.000000 1.000000 1.000000
2645.970703 0.000000 2627.317139 0.000000 0.000000 0.000000 1.000000 1.000000 1.000000 1.000000
755.818115 0.000000 3237.537598 0.000000 0.000000 0.000000 1.000000 1.000000 1.000000 1.000000
265.859161 0.000000 3960.918457 0.000000 0.000000 0.000000 1.000000 1.000000 1.000000 1.000000
257.013885 0.000000 3858.121094 0.000000 0.000000 0.000000 1.000000 1.000000 1.000000 1.000000
352.222504 0.000000 3906.693604 0.000000 0.000000 0.000000 1.000000 1.000000 1.000000 1.000000
474.313416 0.000000 3932.980713 0.000000 0.000000 0.000000 1.000000 1.000000 1.000000 1.000000
5173.899414 0.000000 1302.539917 0.000000 0.000000 0.000000 1.000000 1.000000 1.000000 1.000000
4995.190918 0.000000 1255.514404 0.000000 0.000000 0.000000 1.000000 1.000000 1.000000 1.000000
5084.895020 0.000000 1170.248169 0.000000 0.000000 0.000000 1.000000 1.000000 1.000000 1.000000
5073.861328 0.000000 504.893494 0.000000 0.000000 0.000000 1.000000 1.000000 1.000000 1.000000
5139.358398 0.000000 395.917358 0.000000 0.000000 0.000000 1.000000 1.000000 1.000000 1.000000
4830.259766 0.000000 1579.048828 0.000000 0.000000 0.000000 1.000000 1.000000 1.000000 1.000000
5336.670410 0.000000 287.982178 0.000000 0.000000 0.000000 1.000000 1.000000 1.000000 1.000000
"}
object={
	name="amb_3D_mountain_emitter"
	clamp_to_water_level=no
	render_under_water=no
	generated_content=no
	layer="building_layer"
	entity="map_ambient_3D_mountain"
	count=84
	transform="4380.437500 0.000000 264.727325 0.000000 0.000000 0.000000 1.000000 1.000000 1.000000 1.000000
5127.840332 0.000000 473.789032 0.000000 0.000000 0.000000 1.000000 1.000000 1.000000 1.000000
4554.386719 0.000000 1691.242676 0.000000 0.000000 0.000000 1.000000 1.000000 1.000000 1.000000
4468.665039 0.000000 1732.302734 0.000000 0.000000 0.000000 1.000000 1.000000 1.000000 1.000000
4360.503418 0.000000 1710.323364 0.000000 0.000000 0.000000 1.000000 1.000000 1.000000 1.000000
4281.641602 0.000000 1686.950684 0.000000 0.000000 0.000000 1.000000 1.000000 1.000000 1.000000
4343.383789 0.000000 1632.446167 0.000000 0.000000 0.000000 1.000000 1.000000 1.000000 1.000000
4451.760254 0.000000 1642.360596 0.000000 0.000000 0.000000 1.000000 1.000000 1.000000 1.000000
4576.489258 0.000000 1597.694092 0.000000 0.000000 0.000000 1.000000 1.000000 1.000000 1.000000
4576.032715 0.000000 1510.677368 0.000000 0.000000 0.000000 1.000000 1.000000 1.000000 1.000000
4475.586426 0.000000 1514.314209 0.000000 0.000000 0.000000 1.000000 1.000000 1.000000 1.000000
4463.183105 0.000000 1423.594849 0.000000 0.000000 0.000000 1.000000 1.000000 1.000000 1.000000
4457.498047 0.000000 1319.145996 0.000000 0.000000 0.000000 1.000000 1.000000 1.000000 1.000000
4241.617676 0.000000 1318.932617 0.000000 0.000000 0.000000 1.000000 1.000000 1.000000 1.000000
4194.432617 0.000000 1408.660645 0.000000 0.000000 0.000000 1.000000 1.000000 1.000000 1.000000
4166.797363 0.000000 1512.291260 0.000000 0.000000 0.000000 1.000000 1.000000 1.000000 1.000000
4108.703613 0.000000 1608.427734 0.000000 0.000000 0.000000 1.000000 1.000000 1.000000 1.000000
4100.214355 0.000000 1279.024170 0.000000 0.000000 0.000000 1.000000 1.000000 1.000000 1.000000
3624.027588 0.000000 1561.293945 0.000000 0.000000 0.000000 1.000000 1.000000 1.000000 1.000000
3542.254395 0.000000 1612.785278 0.000000 0.000000 0.000000 1.000000 1.000000 1.000000 1.000000
3486.928467 0.000000 1689.475342 0.000000 0.000000 0.000000 1.000000 1.000000 1.000000 1.000000
3059.811523 0.000000 1777.963501 0.000000 0.000000 0.000000 1.000000 1.000000 1.000000 1.000000
3033.563477 0.000000 1850.846802 0.000000 0.000000 0.000000 1.000000 1.000000 1.000000 1.000000
2981.233643 0.000000 1795.939209 0.000000 0.000000 0.000000 1.000000 1.000000 1.000000 1.000000
2948.900146 0.000000 1867.247803 0.000000 0.000000 0.000000 1.000000 1.000000 1.000000 1.000000
2994.173096 0.000000 1916.015625 0.000000 0.000000 0.000000 1.000000 1.000000 1.000000 1.000000
2766.076172 0.000000 1936.732666 0.000000 0.000000 0.000000 1.000000 1.000000 1.000000 1.000000
3685.791016 0.000000 658.795776 0.000000 0.000000 0.000000 1.000000 1.000000 1.000000 1.000000
3594.119873 0.000000 613.491089 0.000000 0.000000 0.000000 1.000000 1.000000 1.000000 1.000000
3482.226807 0.000000 588.429016 0.000000 0.000000 0.000000 1.000000 1.000000 1.000000 1.000000
3401.535400 0.000000 606.262268 0.000000 0.000000 0.000000 1.000000 1.000000 1.000000 1.000000
3383.480957 0.000000 700.363892 0.000000 0.000000 0.000000 1.000000 1.000000 1.000000 1.000000
3338.611816 0.000000 781.885498 0.000000 0.000000 0.000000 1.000000 1.000000 1.000000 1.000000
3305.081299 0.000000 882.832214 0.000000 0.000000 0.000000 1.000000 1.000000 1.000000 1.000000
3224.374756 0.000000 909.202393 0.000000 0.000000 0.000000 1.000000 1.000000 1.000000 1.000000
3223.012695 0.000000 993.609741 0.000000 0.000000 0.000000 1.000000 1.000000 1.000000 1.000000
3212.109131 0.000000 1100.913940 0.000000 0.000000 0.000000 1.000000 1.000000 1.000000 1.000000
3209.140625 0.000000 236.454102 0.000000 0.000000 0.000000 1.000000 1.000000 1.000000 1.000000
3297.914307 0.000000 341.800537 0.000000 0.000000 0.000000 1.000000 1.000000 1.000000 1.000000
3198.731445 0.000000 528.335449 0.000000 0.000000 0.000000 1.000000 1.000000 1.000000 1.000000
3056.910400 0.000000 556.065857 0.000000 0.000000 0.000000 1.000000 1.000000 1.000000 1.000000
3083.062500 0.000000 626.716125 0.000000 0.000000 0.000000 1.000000 1.000000 1.000000 1.000000
3187.918945 0.000000 599.786255 0.000000 0.000000 0.000000 1.000000 1.000000 1.000000 1.000000
3121.779053 0.000000 677.952759 0.000000 0.000000 0.000000 1.000000 1.000000 1.000000 1.000000
3045.315430 0.000000 740.986328 0.000000 0.000000 0.000000 1.000000 1.000000 1.000000 1.000000
3018.773926 0.000000 821.783691 0.000000 0.000000 0.000000 1.000000 1.000000 1.000000 1.000000
2991.819336 0.000000 894.155701 0.000000 0.000000 0.000000 1.000000 1.000000 1.000000 1.000000
2882.314697 0.000000 510.956299 0.000000 0.000000 0.000000 1.000000 1.000000 1.000000 1.000000
2915.252441 0.000000 650.379822 0.000000 0.000000 0.000000 1.000000 1.000000 1.000000 1.000000
2715.133057 0.000000 668.374268 0.000000 0.000000 0.000000 1.000000 1.000000 1.000000 1.000000
2424.435791 0.000000 502.471771 0.000000 0.000000 0.000000 1.000000 1.000000 1.000000 1.000000
2123.597168 0.000000 381.323975 0.000000 0.000000 0.000000 1.000000 1.000000 1.000000 1.000000
1855.827148 0.000000 334.276062 0.000000 0.000000 0.000000 1.000000 1.000000 1.000000 1.000000
2086.494629 0.000000 745.546448 0.000000 0.000000 0.000000 1.000000 1.000000 1.000000 1.000000
2007.025024 0.000000 817.333313 0.000000 0.000000 0.000000 1.000000 1.000000 1.000000 1.000000
2105.964844 0.000000 868.033508 0.000000 0.000000 0.000000 1.000000 1.000000 1.000000 1.000000
1558.005127 0.000000 685.838623 0.000000 0.000000 0.000000 1.000000 1.000000 1.000000 1.000000
1631.405273 0.000000 929.625977 0.000000 0.000000 0.000000 1.000000 1.000000 1.000000 1.000000
1187.380371 0.000000 789.887024 0.000000 0.000000 0.000000 1.000000 1.000000 1.000000 1.000000
1596.788086 0.000000 286.652100 0.000000 0.000000 0.000000 1.000000 1.000000 1.000000 1.000000
1217.124878 0.000000 334.980499 0.000000 0.000000 0.000000 1.000000 1.000000 1.000000 1.000000
1182.799316 0.000000 166.048904 0.000000 0.000000 0.000000 1.000000 1.000000 1.000000 1.000000
1178.606689 0.000000 255.361160 0.000000 0.000000 0.000000 1.000000 1.000000 1.000000 1.000000
817.162659 0.000000 368.510254 0.000000 0.000000 0.000000 1.000000 1.000000 1.000000 1.000000
742.689575 0.000000 323.175171 0.000000 0.000000 0.000000 1.000000 1.000000 1.000000 1.000000
802.253723 0.000000 449.003357 0.000000 0.000000 0.000000 1.000000 1.000000 1.000000 1.000000
640.816956 0.000000 187.521423 0.000000 0.000000 0.000000 1.000000 1.000000 1.000000 1.000000
588.467834 0.000000 251.148438 0.000000 0.000000 0.000000 1.000000 1.000000 1.000000 1.000000
424.171753 0.000000 301.985168 0.000000 0.000000 0.000000 1.000000 1.000000 1.000000 1.000000
382.602844 0.000000 366.835205 0.000000 0.000000 0.000000 1.000000 1.000000 1.000000 1.000000
340.703461 0.000000 799.541626 0.000000 0.000000 0.000000 1.000000 1.000000 1.000000 1.000000
320.021759 0.000000 1024.417236 0.000000 0.000000 0.000000 1.000000 1.000000 1.000000 1.000000
397.522644 0.000000 1097.967651 0.000000 0.000000 0.000000 1.000000 1.000000 1.000000 1.000000
458.696228 0.000000 1157.473389 0.000000 0.000000 0.000000 1.000000 1.000000 1.000000 1.000000
389.736115 0.000000 1197.993896 0.000000 0.000000 0.000000 1.000000 1.000000 1.000000 1.000000
523.353027 0.000000 1248.753906 0.000000 0.000000 0.000000 1.000000 1.000000 1.000000 1.000000
597.288086 0.000000 1308.531982 0.000000 0.000000 0.000000 1.000000 1.000000 1.000000 1.000000
658.641968 0.000000 1272.434326 0.000000 0.000000 0.000000 1.000000 1.000000 1.000000 1.000000
482.668579 0.000000 1339.244385 0.000000 0.000000 0.000000 1.000000 1.000000 1.000000 1.000000
2226.155518 0.000000 2244.879150 0.000000 0.000000 0.000000 1.000000 1.000000 1.000000 1.000000
2138.309570 0.000000 2002.740112 0.000000 0.000000 0.000000 1.000000 1.000000 1.000000 1.000000
1907.585449 0.000000 3883.840332 0.000000 0.000000 0.000000 1.000000 1.000000 1.000000 1.000000
2090.714600 0.000000 4003.281250 0.000000 0.000000 0.000000 1.000000 1.000000 1.000000 1.000000
392.385620 0.000000 3856.948730 0.000000 0.000000 0.000000 1.000000 1.000000 1.000000 1.000000
"}
object={
	name="amb_3D_ocean_emitter"
	clamp_to_water_level=yes
	render_under_water=no
	generated_content=no
	layer="building_layer"
	entity="map_ambient_3D_ocean"
	count=140
	transform="22.893209 0.000000 -1.179398 0.000000 0.000000 0.000000 1.000000 1.000000 1.000000 1.000000
280.199890 0.000000 7.701492 0.000000 0.000000 0.000000 1.000000 1.000000 1.000000 1.000000
0.365933 0.000000 236.069489 0.000000 0.000000 0.000000 1.000000 1.000000 1.000000 1.000000
99.860626 0.000000 351.190186 0.000000 0.000000 0.000000 1.000000 1.000000 1.000000 1.000000
0.544248 0.000000 473.197632 0.000000 0.000000 0.000000 1.000000 1.000000 1.000000 1.000000
85.152657 0.000000 662.790894 0.000000 0.000000 0.000000 1.000000 1.000000 1.000000 1.000000
0.544248 0.000000 834.552551 0.000000 0.000000 0.000000 1.000000 1.000000 1.000000 1.000000
115.530884 0.000000 1046.130127 0.000000 0.000000 0.000000 1.000000 1.000000 1.000000 1.000000
0.544248 0.000000 1193.799805 0.000000 0.000000 0.000000 1.000000 1.000000 1.000000 1.000000
0.544248 0.000000 1432.332153 0.000000 0.000000 0.000000 1.000000 1.000000 1.000000 1.000000
163.025696 0.000000 1580.074585 0.000000 0.000000 0.000000 1.000000 1.000000 1.000000 1.000000
0.544248 0.000000 1673.918945 0.000000 0.000000 0.000000 1.000000 1.000000 1.000000 1.000000
130.463104 0.000000 1784.845581 0.000000 0.000000 0.000000 1.000000 1.000000 1.000000 1.000000
0.544250 0.000000 1908.908203 0.000000 0.000000 0.000000 1.000000 1.000000 1.000000 1.000000
85.754822 0.000000 2073.423340 0.000000 0.000000 0.000000 1.000000 1.000000 1.000000 1.000000
0.544248 0.000000 2263.380371 0.000000 0.000000 0.000000 1.000000 1.000000 1.000000 1.000000
0.544248 0.000000 2508.555908 0.000000 0.000000 0.000000 1.000000 1.000000 1.000000 1.000000
0.544249 0.000000 2739.391113 0.000000 0.000000 0.000000 1.000000 1.000000 1.000000 1.000000
0.544248 0.000000 2970.134766 0.000000 0.000000 0.000000 1.000000 1.000000 1.000000 1.000000
0.270975 0.000000 3087.385254 0.000000 0.000000 0.000000 1.000000 1.000000 1.000000 1.000000
0.270972 0.000000 3200.847656 0.000000 0.000000 0.000000 1.000000 1.000000 1.000000 1.000000
0.270972 0.000000 3431.172852 0.000000 0.000000 0.000000 1.000000 1.000000 1.000000 1.000000
0.196632 0.000000 3678.721924 0.000000 0.000000 0.000000 1.000000 1.000000 1.000000 1.000000
0.196631 0.000000 3957.281006 0.000000 0.000000 0.000000 1.000000 1.000000 1.000000 1.000000
7.996634 0.000000 4090.304199 0.000000 0.000000 0.000000 1.000000 1.000000 1.000000 1.000000
183.499481 0.000000 3985.424805 0.000000 0.000000 0.000000 1.000000 1.000000 1.000000 1.000000
141.348892 0.000000 3841.783203 0.000000 0.000000 0.000000 1.000000 1.000000 1.000000 1.000000
140.955521 0.000000 3699.214355 0.000000 0.000000 0.000000 1.000000 1.000000 1.000000 1.000000
149.645142 0.000000 3533.668945 0.000000 0.000000 0.000000 1.000000 1.000000 1.000000 1.000000
156.664185 0.000000 3380.201904 0.000000 0.000000 0.000000 1.000000 1.000000 1.000000 1.000000
153.476196 0.000000 3225.679199 0.000000 0.000000 0.000000 1.000000 1.000000 1.000000 1.000000
164.556778 0.000000 3061.141113 0.000000 0.000000 0.000000 1.000000 1.000000 1.000000 1.000000
149.666107 0.000000 2917.910156 0.000000 0.000000 0.000000 1.000000 1.000000 1.000000 1.000000
339.404297 0.000000 4009.468262 0.000000 0.000000 0.000000 1.000000 1.000000 1.000000 1.000000
463.195679 0.000000 3767.299072 0.000000 0.000000 0.000000 1.000000 1.000000 1.000000 1.000000
331.248138 0.000000 3741.154541 0.000000 0.000000 0.000000 1.000000 1.000000 1.000000 1.000000
261.398224 0.000000 3593.827148 0.000000 0.000000 0.000000 1.000000 1.000000 1.000000 1.000000
408.543518 0.000000 3596.444824 0.000000 0.000000 0.000000 1.000000 1.000000 1.000000 1.000000
1935.589844 0.000000 4063.799316 0.000000 0.000000 0.000000 1.000000 1.000000 1.000000 1.000000
2139.281250 0.000000 4089.466553 0.000000 0.000000 0.000000 1.000000 1.000000 1.000000 1.000000
549.705200 0.000000 3438.843994 0.000000 0.000000 0.000000 1.000000 1.000000 1.000000 1.000000
294.208649 0.000000 3427.481689 0.000000 0.000000 0.000000 1.000000 1.000000 1.000000 1.000000
222.735016 0.000000 2757.345215 0.000000 0.000000 0.000000 1.000000 1.000000 1.000000 1.000000
269.549622 0.000000 2577.924072 0.000000 0.000000 0.000000 1.000000 1.000000 1.000000 1.000000
293.446198 0.000000 2403.779541 0.000000 0.000000 0.000000 1.000000 1.000000 1.000000 1.000000
290.452148 0.000000 2226.950684 0.000000 0.000000 0.000000 1.000000 1.000000 1.000000 1.000000
290.452148 0.000000 1974.128906 0.000000 0.000000 0.000000 1.000000 1.000000 1.000000 1.000000
290.452148 0.000000 1741.231689 0.000000 0.000000 0.000000 1.000000 1.000000 1.000000 1.000000
290.452148 0.000000 1513.500732 0.000000 0.000000 0.000000 1.000000 1.000000 1.000000 1.000000
161.945633 0.000000 4081.462158 0.000000 0.000000 0.000000 1.000000 1.000000 1.000000 1.000000
2347.285156 0.000000 4018.048340 0.000000 0.000000 0.000000 1.000000 1.000000 1.000000 1.000000
2576.581299 0.000000 3891.518555 0.000000 0.000000 0.000000 1.000000 1.000000 1.000000 1.000000
2547.096924 0.000000 4083.779053 0.000000 0.000000 0.000000 1.000000 1.000000 1.000000 1.000000
369.997925 0.000000 3266.972412 0.000000 0.000000 0.000000 1.000000 1.000000 1.000000 1.000000
394.015686 0.000000 1368.315186 0.000000 0.000000 0.000000 1.000000 1.000000 1.000000 1.000000
279.877380 0.000000 1219.728027 0.000000 0.000000 0.000000 1.000000 1.000000 1.000000 1.000000
260.418457 0.000000 275.870148 0.000000 0.000000 0.000000 1.000000 1.000000 1.000000 1.000000
431.622314 0.000000 87.422356 0.000000 0.000000 0.000000 1.000000 1.000000 1.000000 1.000000
786.493103 0.000000 51.371536 0.000000 0.000000 0.000000 1.000000 1.000000 1.000000 1.000000
1169.616943 0.000000 51.048325 0.000000 0.000000 0.000000 1.000000 1.000000 1.000000 1.000000
1413.113525 0.000000 51.048325 0.000000 0.000000 0.000000 1.000000 1.000000 1.000000 1.000000
3595.163330 0.000000 51.048355 0.000000 0.000000 0.000000 1.000000 1.000000 1.000000 1.000000
3935.284668 0.000000 51.048355 0.000000 0.000000 0.000000 1.000000 1.000000 1.000000 1.000000
4312.040039 0.000000 51.048355 0.000000 0.000000 0.000000 1.000000 1.000000 1.000000 1.000000
4669.316406 0.000000 51.048355 0.000000 0.000000 0.000000 1.000000 1.000000 1.000000 1.000000
5063.842285 0.000000 51.048355 0.000000 0.000000 0.000000 1.000000 1.000000 1.000000 1.000000
5458.687012 0.000000 51.048355 0.000000 0.000000 0.000000 1.000000 1.000000 1.000000 1.000000
5824.547363 0.000000 51.048355 0.000000 0.000000 0.000000 1.000000 1.000000 1.000000 1.000000
6210.020020 0.000000 51.048355 0.000000 0.000000 0.000000 1.000000 1.000000 1.000000 1.000000
3196.779785 0.000000 763.640076 0.000000 0.000000 0.000000 1.000000 1.000000 1.000000 1.000000
3330.473633 0.000000 587.325439 0.000000 0.000000 0.000000 1.000000 1.000000 1.000000 1.000000
3542.731445 0.000000 478.262817 0.000000 0.000000 0.000000 1.000000 1.000000 1.000000 1.000000
3781.279541 0.000000 561.455322 0.000000 0.000000 0.000000 1.000000 1.000000 1.000000 1.000000
4005.462402 0.000000 711.638428 0.000000 0.000000 0.000000 1.000000 1.000000 1.000000 1.000000
4192.888184 0.000000 931.469116 0.000000 0.000000 0.000000 1.000000 1.000000 1.000000 1.000000
4069.119141 0.000000 1149.384888 0.000000 0.000000 0.000000 1.000000 1.000000 1.000000 1.000000
3855.055664 0.000000 1179.215454 0.000000 0.000000 0.000000 1.000000 1.000000 1.000000 1.000000
4415.666504 0.000000 1139.446045 0.000000 0.000000 0.000000 1.000000 1.000000 1.000000 1.000000
5016.047363 0.000000 381.129028 0.000000 0.000000 0.000000 1.000000 1.000000 1.000000 1.000000
6063.533203 0.000000 97.153183 0.000000 0.000000 0.000000 1.000000 1.000000 1.000000 1.000000
5948.696777 0.000000 26.185211 0.000000 0.000000 0.000000 1.000000 1.000000 1.000000 1.000000
5659.967285 0.000000 133.176178 0.000000 0.000000 0.000000 1.000000 1.000000 1.000000 1.000000
5342.564453 0.000000 165.489059 0.000000 0.000000 0.000000 1.000000 1.000000 1.000000 1.000000
5281.784668 0.000000 37.006882 0.000000 0.000000 0.000000 1.000000 1.000000 1.000000 1.000000
5174.140137 0.000000 170.900162 0.000000 0.000000 0.000000 1.000000 1.000000 1.000000 1.000000
5026.908203 0.000000 206.718948 0.000000 0.000000 0.000000 1.000000 1.000000 1.000000 1.000000
4888.237793 0.000000 72.065285 0.000000 0.000000 0.000000 1.000000 1.000000 1.000000 1.000000
4823.422852 0.000000 209.466675 0.000000 0.000000 0.000000 1.000000 1.000000 1.000000 1.000000
4836.986328 0.000000 364.000244 0.000000 0.000000 0.000000 1.000000 1.000000 1.000000 1.000000
4296.582031 0.000000 744.585083 0.000000 0.000000 0.000000 1.000000 1.000000 1.000000 1.000000
4283.229004 0.000000 566.362183 0.000000 0.000000 0.000000 1.000000 1.000000 1.000000 1.000000
4335.941895 0.000000 431.752258 0.000000 0.000000 0.000000 1.000000 1.000000 1.000000 1.000000
4455.213867 0.000000 544.432312 0.000000 0.000000 0.000000 1.000000 1.000000 1.000000 1.000000
4645.051270 0.000000 453.265472 0.000000 0.000000 0.000000 1.000000 1.000000 1.000000 1.000000
4141.017578 0.000000 444.420349 0.000000 0.000000 0.000000 1.000000 1.000000 1.000000 1.000000
4210.241211 0.000000 291.904938 0.000000 0.000000 0.000000 1.000000 1.000000 1.000000 1.000000
4188.499023 0.000000 152.009506 0.000000 0.000000 0.000000 1.000000 1.000000 1.000000 1.000000
4129.977539 0.000000 20.986420 0.000000 0.000000 0.000000 1.000000 1.000000 1.000000 1.000000
4046.332520 0.000000 155.802917 0.000000 0.000000 0.000000 1.000000 1.000000 1.000000 1.000000
4063.854492 0.000000 294.953186 0.000000 0.000000 0.000000 1.000000 1.000000 1.000000 1.000000
3903.349121 0.000000 280.957458 0.000000 0.000000 0.000000 1.000000 1.000000 1.000000 1.000000
3764.542480 0.000000 156.624664 0.000000 0.000000 0.000000 1.000000 1.000000 1.000000 1.000000
3753.739990 0.000000 291.082458 0.000000 0.000000 0.000000 1.000000 1.000000 1.000000 1.000000
3843.560059 0.000000 423.657288 0.000000 0.000000 0.000000 1.000000 1.000000 1.000000 1.000000
3985.964844 0.000000 473.653503 0.000000 0.000000 0.000000 1.000000 1.000000 1.000000 1.000000
4113.846680 0.000000 608.932007 0.000000 0.000000 0.000000 1.000000 1.000000 1.000000 1.000000
3911.343994 0.000000 591.808411 0.000000 0.000000 0.000000 1.000000 1.000000 1.000000 1.000000
3852.509033 0.000000 692.875610 0.000000 0.000000 0.000000 1.000000 1.000000 1.000000 1.000000
3653.524414 0.000000 494.076813 0.000000 0.000000 0.000000 1.000000 1.000000 1.000000 1.000000
3259.231445 0.000000 694.603699 0.000000 0.000000 0.000000 1.000000 1.000000 1.000000 1.000000
3434.005127 0.000000 456.883331 0.000000 0.000000 0.000000 1.000000 1.000000 1.000000 1.000000
3764.082520 0.000000 32.086868 0.000000 0.000000 0.000000 1.000000 1.000000 1.000000 1.000000
4389.666504 0.000000 153.648880 0.000000 0.000000 0.000000 1.000000 1.000000 1.000000 1.000000
4486.624023 0.000000 57.191490 0.000000 0.000000 0.000000 1.000000 1.000000 1.000000 1.000000
4638.339844 0.000000 202.293594 0.000000 0.000000 0.000000 1.000000 1.000000 1.000000 1.000000
4344.573730 0.000000 940.324890 0.000000 0.000000 0.000000 1.000000 1.000000 1.000000 1.000000
4571.855957 0.000000 1166.113647 0.000000 0.000000 0.000000 1.000000 1.000000 1.000000 1.000000
5122.576172 0.000000 268.788361 0.000000 0.000000 0.000000 1.000000 1.000000 1.000000 1.000000
5258.355957 0.000000 246.041199 0.000000 0.000000 0.000000 1.000000 1.000000 1.000000 1.000000
5601.639160 0.000000 6.906136 0.000000 0.000000 0.000000 1.000000 1.000000 1.000000 1.000000
5711.700195 0.000000 11.215096 0.000000 0.000000 0.000000 1.000000 1.000000 1.000000 1.000000
3901.306396 0.000000 164.166733 0.000000 0.000000 0.000000 1.000000 1.000000 1.000000 1.000000
1292.836670 0.000000 95.894363 0.000000 0.000000 0.000000 1.000000 1.000000 1.000000 1.000000
981.997437 0.000000 43.634094 0.000000 0.000000 0.000000 1.000000 1.000000 1.000000 1.000000
584.874512 0.000000 37.630127 0.000000 0.000000 0.000000 1.000000 1.000000 1.000000 1.000000
236.446579 0.000000 149.041901 0.000000 0.000000 0.000000 1.000000 1.000000 1.000000 1.000000
75.075996 0.000000 128.971619 0.000000 0.000000 0.000000 1.000000 1.000000 1.000000 1.000000
142.765747 0.000000 1225.425659 0.000000 0.000000 0.000000 1.000000 1.000000 1.000000 1.000000
142.271301 0.000000 1399.659424 0.000000 0.000000 0.000000 1.000000 1.000000 1.000000 1.000000
323.559235 0.000000 1643.374023 0.000000 0.000000 0.000000 1.000000 1.000000 1.000000 1.000000
138.563354 0.000000 1956.622559 0.000000 0.000000 0.000000 1.000000 1.000000 1.000000 1.000000
110.095596 0.000000 2628.200928 0.000000 0.000000 0.000000 1.000000 1.000000 1.000000 1.000000
1298.928833 0.000000 4094.819824 0.000000 0.000000 0.000000 1.000000 1.000000 1.000000 1.000000
1570.918579 0.000000 4080.102539 0.000000 0.000000 0.000000 1.000000 1.000000 1.000000 1.000000
1804.548828 0.000000 4080.102539 0.000000 0.000000 0.000000 1.000000 1.000000 1.000000 1.000000
2539.752930 0.000000 3798.179199 0.000000 0.000000 0.000000 1.000000 1.000000 1.000000 1.000000
4663.000488 0.000000 331.262817 0.000000 0.000000 0.000000 1.000000 1.000000 1.000000 1.000000
4137.954590 0.000000 807.415833 0.000000 0.000000 0.000000 1.000000 1.000000 1.000000 1.000000
4236.303711 0.000000 1096.996948 0.000000 0.000000 0.000000 1.000000 1.000000 1.000000 1.000000
311.279022 0.000000 3157.103516 0.000000 0.000000 0.000000 1.000000 1.000000 1.000000 1.000000
"}
object={
	name="amb_3D_river_emitter"
	clamp_to_water_level=no
	render_under_water=no
	generated_content=no
	layer="building_layer"
	entity="map_ambient_3D_river"
	count=24
	transform="4428.443359 0.000000 358.669189 0.000000 0.000000 0.000000 1.000000 1.000000 1.000000 1.000000
767.308289 0.000000 532.062439 0.000000 0.000000 0.000000 1.000000 1.000000 1.000000 1.000000
911.648926 0.000000 641.666748 0.000000 0.000000 0.000000 1.000000 1.000000 1.000000 1.000000
1131.361328 0.000000 597.628296 0.000000 0.000000 0.000000 1.000000 1.000000 1.000000 1.000000
1003.829529 0.000000 656.590820 0.000000 0.000000 0.000000 1.000000 1.000000 1.000000 1.000000
1196.157593 0.000000 533.023376 0.000000 0.000000 0.000000 1.000000 1.000000 1.000000 1.000000
1272.468262 0.000000 454.770752 0.000000 0.000000 0.000000 1.000000 1.000000 1.000000 1.000000
1363.213623 0.000000 400.028564 0.000000 0.000000 0.000000 1.000000 1.000000 1.000000 1.000000
1401.434937 0.000000 320.605591 0.000000 0.000000 0.000000 1.000000 1.000000 1.000000 1.000000
1469.973145 0.000000 263.021912 0.000000 0.000000 0.000000 1.000000 1.000000 1.000000 1.000000
1531.043335 0.000000 193.017563 0.000000 0.000000 0.000000 1.000000 1.000000 1.000000 1.000000
1529.963501 0.000000 92.631348 0.000000 0.000000 0.000000 1.000000 1.000000 1.000000 1.000000
4548.791016 0.000000 1214.516602 0.000000 0.000000 0.000000 1.000000 1.000000 1.000000 1.000000
4528.233398 0.000000 1308.254639 0.000000 0.000000 0.000000 1.000000 1.000000 1.000000 1.000000
4581.362305 0.000000 1397.580078 0.000000 0.000000 0.000000 1.000000 1.000000 1.000000 1.000000
4646.330566 0.000000 1468.936890 0.000000 0.000000 0.000000 1.000000 1.000000 1.000000 1.000000
4726.667480 0.000000 1517.091553 0.000000 0.000000 0.000000 1.000000 1.000000 1.000000 1.000000
4801.419922 0.000000 1567.038574 0.000000 0.000000 0.000000 1.000000 1.000000 1.000000 1.000000
4638.750977 0.000000 1566.258667 0.000000 0.000000 0.000000 1.000000 1.000000 1.000000 1.000000
4652.691895 0.000000 1667.558105 0.000000 0.000000 0.000000 1.000000 1.000000 1.000000 1.000000
5180.111328 0.000000 1369.707397 0.000000 0.000000 0.000000 1.000000 1.000000 1.000000 1.000000
2198.286621 0.000000 2201.215820 0.000000 0.000000 0.000000 1.000000 1.000000 1.000000 1.000000
2768.917480 0.000000 2512.575684 0.000000 0.000000 0.000000 1.000000 1.000000 1.000000 1.000000
2560.249512 0.000000 2737.118896 0.000000 0.000000 0.000000 1.000000 1.000000 1.000000 1.000000
"}
